# This file uses centimeters as units for non-parametric coordinates.

mtllib candle.mtl
g default
v -17.315657 5.418535 1.243310
v -17.775306 6.320663 1.243310
v -18.491225 7.036596 1.243310
v -19.393383 7.496253 1.243310
v -20.393388 7.654641 1.243310
v -21.393409 7.496253 1.243310
v -22.295534 7.036596 1.243310
v -23.011469 6.320663 1.243310
v -23.471118 5.418535 1.243310
v -23.629508 4.418519 1.243310
v -23.471118 3.418503 1.243310
v -23.011469 2.516375 1.243310
v -22.295534 1.800442 1.243310
v -21.393409 1.340785 1.243310
v -20.393388 1.182399 1.243310
v -19.393383 1.340785 1.243310
v -18.491225 1.800443 1.243310
v -17.775306 2.516375 1.243310
v -17.315657 3.418503 1.243310
v -17.157284 4.418519 1.243310
v -16.493321 5.685731 1.243310
v -17.075792 6.828900 1.243310
v -17.983012 7.736123 1.243310
v -19.126187 8.318596 1.243310
v -20.393388 8.519302 1.243310
v -21.660605 8.318596 1.243310
v -22.803780 7.736122 1.243310
v -23.711000 6.828899 1.243310
v -24.293455 5.685730 1.243310
v -24.494177 4.418519 1.243310
v -24.293455 3.151307 1.243310
v -23.711000 2.008139 1.243310
v -22.803780 1.100916 1.243310
v -21.660605 0.518443 1.243310
v -20.393388 0.317737 1.243310
v -19.126187 0.518443 1.243310
v -17.983012 1.100916 1.243310
v -16.766213 1.682730 1.243310
v -14.223192 1.740146 1.243310
v -15.983036 4.743929 1.243310
v -16.493321 5.685731 -1.243310
v -17.075792 6.828900 -1.243310
v -17.983012 7.736123 -1.243310
v -19.126187 8.318596 -1.243310
v -20.393388 8.519302 -1.243310
v -21.660605 8.318596 -1.243310
v -22.803780 7.736122 -1.243310
v -23.711000 6.828899 -1.243310
v -24.293455 5.685730 -1.243310
v -24.494177 4.418519 -1.243310
v -24.293455 3.151307 -1.243310
v -23.711000 2.008139 -1.243310
v -22.803780 1.100916 -1.243310
v -21.660605 0.518443 -1.243310
v -20.393388 0.317737 -1.243310
v -19.126187 0.518443 -1.243310
v -17.983012 1.100916 -1.243310
v -16.766213 1.682730 -1.243310
v -14.223192 1.740146 -1.243310
v -15.983036 4.743929 -1.243310
v -17.315657 5.418535 -1.243310
v -17.775306 6.320663 -1.243310
v -18.491225 7.036596 -1.243310
v -19.393383 7.496253 -1.243310
v -20.393388 7.654640 -1.243310
v -21.393409 7.496253 -1.243310
v -22.295534 7.036596 -1.243310
v -23.011469 6.320663 -1.243310
v -23.471118 5.418535 -1.243310
v -23.629508 4.418519 -1.243310
v -23.471118 3.418503 -1.243310
v -23.011469 2.516375 -1.243310
v -22.295534 1.800443 -1.243310
v -21.393409 1.340786 -1.243310
v -20.393388 1.182399 -1.243310
v -19.393383 1.340786 -1.243310
v -18.491225 1.800443 -1.243310
v -17.775306 2.516375 -1.243310
v -17.315657 3.418503 -1.243310
v -17.157284 4.418519 -1.243310
v -1.883351 11.881937 -0.000611
v -1.663985 11.881937 0.961759
v -1.048770 11.881937 1.733641
v -0.159592 11.881937 2.162154
v 0.827465 11.881937 2.162426
v 1.716893 11.881937 1.734403
v 2.332526 11.881937 0.962860
v 2.552427 11.881937 0.000611
v 2.333060 11.881937 -0.961759
v 1.717845 11.881937 -1.733641
v 0.828668 11.881937 -2.162154
v -0.158390 11.881937 -2.162426
v -1.047817 11.881937 -1.734403
v -1.663450 11.881937 -0.962860
v -1.883351 28.697435 -0.000611
v -1.663985 28.697435 0.961759
v -1.048770 28.697435 1.733641
v -0.159592 28.697435 2.162154
v 0.827465 28.697435 2.162426
v 1.716893 28.697435 1.734403
v 2.332526 28.697435 0.962860
v 2.552427 28.697435 0.000611
v 2.333060 28.697435 -0.961759
v 1.717845 28.697435 -1.733641
v 0.828668 28.697435 -2.162154
v -0.158390 28.697435 -2.162426
v -1.047817 28.697435 -1.734403
v -1.663450 28.697435 -0.962860
v 0.334538 28.697435 0.000000
v 6.897859 0.000000 -2.025820
v 6.008966 0.000000 -3.871641
v 4.615485 0.000000 -5.373450
v 2.841257 0.000000 -6.397803
v 0.843921 0.000000 -6.853685
v -1.199057 0.000000 -6.700585
v -3.106148 0.000000 -5.952109
v -4.707886 0.000000 -4.674763
v -5.861970 0.000000 -2.982043
v -6.465842 0.000000 -1.024355
v -6.465842 0.000000 1.024351
v -5.861970 0.000000 2.982039
v -4.707903 0.000000 4.674760
v -3.106148 0.000000 5.952108
v -1.199074 0.000000 6.700585
v 0.843904 0.000000 6.853686
v 2.841257 0.000000 6.397805
v 4.615485 0.000000 5.373453
v 6.008966 0.000000 3.871645
v 6.897859 0.000000 2.025824
v 7.203212 0.000000 -0.000000
v 12.021240 0.426803 -3.647943
v 10.434821 0.426803 -6.942162
v 7.947915 0.426803 -9.622427
v 4.781459 0.426803 -11.450579
v 1.216832 0.426803 -12.264182
v -2.429254 0.426803 -11.990950
v -5.832818 0.426803 -10.655155
v -8.691433 0.426803 -8.375486
v -10.751099 0.426803 -5.354505
v -11.828820 0.426803 -1.860639
v -11.828820 0.426803 1.795666
v -10.751099 0.426803 5.289534
v -8.691433 0.426803 8.310516
v -5.832818 0.426803 10.590185
v -2.429270 0.426803 11.925984
v 1.216815 0.426803 12.199221
v 4.781459 0.426803 11.385616
v 7.947915 0.426803 9.557467
v 10.434821 0.426803 6.877203
v 12.021240 0.426803 3.582985
v 12.566190 0.426803 -0.032483
v 14.232998 1.287176 -4.301711
v 12.345487 1.287176 -8.221202
v 9.386519 1.287176 -11.410205
v 5.619048 1.287176 -13.585357
v 1.377811 1.287176 -14.553393
v -2.960337 1.287176 -14.228298
v -7.009923 1.287176 -12.638952
v -10.411132 1.287176 -9.926584
v -12.861736 1.287176 -6.332193
v -14.144022 1.287176 -2.175158
v -14.144022 1.287176 2.175149
v -12.861736 1.287176 6.332186
v -10.411132 1.287176 9.926580
v -7.009923 1.287176 12.638947
v -2.960337 1.287176 14.228298
v 1.377811 1.287176 14.553393
v 5.619048 1.287176 13.585360
v 9.386519 1.287176 11.410212
v 12.345470 1.287176 8.221208
v 14.232998 1.287176 4.301717
v 14.881392 1.287176 -0.000001
v 14.232998 1.716520 -4.301711
v 12.345487 1.716520 -8.221202
v 9.386519 1.716520 -11.410205
v 5.619048 1.716520 -13.585357
v 1.377811 1.716520 -14.553393
v -2.960337 1.716520 -14.228298
v -7.009923 1.716520 -12.638952
v -10.411132 1.716520 -9.926583
v -12.861736 1.716520 -6.332193
v -14.144022 1.716520 -2.175158
v -14.144022 1.716520 2.175149
v -12.861736 1.716520 6.332186
v -10.411132 1.716520 9.926579
v -7.009923 1.716520 12.638947
v -2.960337 1.716520 14.228298
v 1.377811 1.716520 14.553392
v 5.619048 1.716520 13.585360
v 9.386519 1.716520 11.410212
v 12.345470 1.716520 8.221208
v 14.232998 1.716520 4.301716
v 14.881392 1.716520 -0.000001
v 12.657087 1.083812 -3.812747
v 10.984115 1.083812 -7.286718
v 8.361489 1.083812 -10.113237
v 5.022243 1.083812 -12.041146
v 1.263108 1.083812 -12.899146
v -2.581930 1.083812 -12.611002
v -6.171215 1.083812 -11.202318
v -9.185814 1.083812 -8.798252
v -11.357878 1.083812 -5.612429
v -12.494404 1.083812 -1.927913
v -12.494404 1.083812 1.927905
v -11.357878 1.083812 5.612422
v -9.185814 1.083812 8.798248
v -6.171215 1.083812 11.202314
v -2.581930 1.083812 12.611001
v 1.263108 1.083812 12.899148
v 5.022243 1.083812 12.041149
v 8.361489 1.083812 10.113243
v 10.984098 1.083812 7.286723
v 12.657087 1.083812 3.812752
v 13.231774 1.083812 -0.000001
v 10.513791 0.546001 -3.147742
v 9.132605 0.546001 -6.015800
v 6.967423 0.546001 -8.349328
v 4.210598 0.546001 -9.940979
v 1.107107 0.546001 -10.649335
v -2.067301 0.546001 -10.411444
v -5.030546 0.546001 -9.248459
v -7.519356 0.546001 -7.263702
v -9.312579 0.546001 -4.633531
v -10.250871 0.546001 -1.591654
v -10.250871 0.546001 1.591648
v -9.312579 0.546001 4.633525
v -7.519356 0.546001 7.263694
v -5.030562 0.546001 9.248456
v -2.067301 0.546001 10.411444
v 1.107107 0.546001 10.649336
v 4.210598 0.546001 9.940981
v 6.967406 0.546001 8.349333
v 9.132605 0.546001 6.015804
v 10.513791 0.546001 3.147746
v 10.988241 0.546001 -0.000000
v 8.231951 0.347515 -2.439750
v 7.161430 0.347515 -4.662721
v 5.483228 0.347515 -6.471390
v 3.346463 0.347515 -7.705048
v 0.941016 0.347515 -8.254075
v -1.519394 0.347515 -8.069696
v -3.816153 0.347515 -7.168288
v -5.745178 0.347515 -5.629944
v -7.135068 0.347515 -3.591355
v -7.862314 0.347515 -1.233659
v -7.862314 0.347515 1.233654
v -7.135068 0.347515 3.591351
v -5.745178 0.347515 5.629940
v -3.816153 0.347515 7.168288
v -1.519394 0.347515 8.069697
v 0.941016 0.347515 8.254076
v 3.346463 0.347515 7.705051
v 5.483228 0.347515 6.471396
v 7.161413 0.347515 4.662727
v 8.231951 0.347515 2.439755
v 8.599683 0.347515 -0.000000
v 2.590166 2.046220 -0.689262
v 2.287737 2.046220 -1.317286
v 1.813621 2.046220 -1.828258
v 1.209949 2.046220 -2.176788
v 0.530382 2.046220 -2.331898
v -0.164721 2.046220 -2.279802
v -0.813582 2.046220 -2.025144
v -1.358566 2.046220 -1.590541
v -1.751224 2.046220 -1.014609
v -1.956691 2.046220 -0.348526
v -1.956691 2.046220 0.348526
v -1.751224 2.046220 1.014608
v -1.358566 2.046220 1.590540
v -0.813599 2.046220 2.025144
v -0.164721 2.046220 2.279803
v 0.530382 2.046220 2.331899
v 1.209949 2.046220 2.176790
v 1.813621 2.046220 1.828259
v 2.287737 2.046220 1.317287
v 2.590166 2.046220 0.689264
v 2.694060 2.046220 0.000000
v 2.179382 3.352867 -0.561808
v 1.932868 3.352867 -1.073701
v 1.546425 3.352867 -1.490186
v 1.054383 3.352867 -1.774258
v 0.500478 3.352867 -1.900685
v -0.066089 3.352867 -1.858235
v -0.594968 3.352867 -1.650665
v -1.039180 3.352867 -1.296423
v -1.359234 3.352867 -0.826990
v -1.526695 3.352867 -0.284077
v -1.526695 3.352867 0.284078
v -1.359234 3.352867 0.826989
v -1.039180 3.352867 1.296424
v -0.594968 3.352867 1.650666
v -0.066089 3.352867 1.858235
v 0.500478 3.352867 1.900687
v 1.054383 3.352867 1.774259
v 1.546425 3.352867 1.490189
v 1.932868 3.352867 1.073702
v 2.179382 3.352867 0.561809
v 2.264065 3.352867 0.000000
v 2.043846 6.312970 -0.519755
v 1.815792 6.312970 -0.993330
v 1.458267 6.312970 -1.378643
v 1.003062 6.312970 -1.641456
v 0.490605 6.312970 -1.758419
v -0.033546 6.312970 -1.719141
v -0.522831 6.312970 -1.527106
v -0.933799 6.312970 -1.199380
v -1.229896 6.312970 -0.765087
v -1.384828 6.312970 -0.262813
v -1.384828 6.312970 0.262814
v -1.229896 6.312970 0.765088
v -0.933799 6.312970 1.199381
v -0.522831 6.312970 1.527106
v -0.033546 6.312970 1.719141
v 0.490605 6.312970 1.758420
v 1.003062 6.312970 1.641458
v 1.458267 6.312970 1.378645
v 1.815792 6.312970 0.993332
v 2.043846 6.312970 0.519756
v 2.122181 6.312970 0.000000
v 2.967237 7.461306 -0.806258
v 2.613471 7.461306 -1.540880
v 2.058865 7.461306 -2.138585
v 1.352752 7.461306 -2.546270
v 0.557814 7.461306 -2.727706
v -0.255268 7.461306 -2.666772
v -1.014272 7.461306 -2.368887
v -1.651756 7.461306 -1.860514
v -2.111054 7.461306 -1.186827
v -2.351404 7.461306 -0.407684
v -2.351404 7.461306 0.407683
v -2.111071 7.461306 1.186826
v -1.651756 7.461306 1.860513
v -1.014272 7.461306 2.368887
v -0.255268 7.461306 2.666772
v 0.557814 7.461306 2.727707
v 1.352752 7.461306 2.546272
v 2.058865 7.461306 2.138586
v 2.613454 7.461306 1.540881
v 2.967237 7.461306 0.806261
v 3.088757 7.461306 0.000000
v 3.222254 8.027902 -0.885381
v 2.833756 8.027902 -1.692096
v 2.224739 8.027902 -2.348461
v 1.449313 8.027902 -2.796151
v 0.576391 8.027902 -2.995396
v -0.316495 8.027902 -2.928484
v -1.149991 8.027902 -2.601361
v -1.850023 8.027902 -2.043100
v -2.354411 8.027902 -1.303298
v -2.618332 8.027902 -0.447693
v -2.618332 8.027902 0.447692
v -2.354411 8.027902 1.303297
v -1.850040 8.027902 2.043100
v -1.149991 8.027902 2.601361
v -0.316495 8.027902 2.928484
v 0.576374 8.027902 2.995397
v 1.449313 8.027902 2.796153
v 2.224739 8.027902 2.348463
v 2.833756 8.027902 1.692098
v 3.222254 8.027902 0.885385
v 3.355702 8.027902 0.000000
v 3.311481 9.066613 -0.913065
v 2.910838 9.066613 -1.745005
v 2.282775 9.066613 -2.421892
v 1.483109 9.066613 -2.883582
v 0.582873 9.066613 -3.089054
v -0.337929 9.066613 -3.020050
v -1.197470 9.066613 -2.682702
v -1.919403 9.066613 -2.106983
v -2.439561 9.066613 -1.344049
v -2.711735 9.066613 -0.461691
v -2.711735 9.066613 0.461690
v -2.439561 9.066613 1.344048
v -1.919403 9.066613 2.106983
v -1.197470 9.066613 2.682699
v -0.337929 9.066613 3.020050
v 0.582873 9.066613 3.089055
v 1.483109 9.066613 2.883584
v 2.282775 9.066613 2.421894
v 2.910838 9.066613 1.745007
v 3.311481 9.066613 0.913069
v 3.449105 9.066613 0.000000
v 3.291751 10.006349 -0.906944
v 2.893797 10.006349 -1.733305
v 2.269945 10.006349 -2.405655
v 1.475641 10.006349 -2.864248
v 0.581436 10.006349 -3.068343
v -0.333185 10.006349 -2.999802
v -1.186978 10.006349 -2.664714
v -1.904067 10.006349 -2.092857
v -2.420734 10.006349 -1.335037
v -2.691087 10.006349 -0.458596
v -2.691087 10.006349 0.458594
v -2.420734 10.006349 1.335037
v -1.904067 10.006349 2.092854
v -1.186978 10.006349 2.664713
v -0.333185 10.006349 2.999802
v 0.581436 10.006349 3.068344
v 1.475641 10.006349 2.864251
v 2.269945 10.006349 2.405657
v 2.893797 10.006349 1.733307
v 3.291751 10.006349 0.906946
v 3.428440 10.006349 0.000000
v 3.190713 11.011976 -0.875598
v 2.806525 11.011976 -1.673399
v 2.204240 11.011976 -2.322509
v 1.437385 11.011976 -2.765252
v 0.574085 11.011976 -2.962293
v -0.308927 11.011976 -2.896121
v -1.133202 11.011976 -2.572616
v -1.825515 11.011976 -2.020522
v -2.324323 11.011976 -1.288896
v -2.585338 11.011976 -0.442745
v -2.585338 11.011976 0.442745
v -2.324323 11.011976 1.288895
v -1.825515 11.011976 2.020521
v -1.133202 11.011976 2.572615
v -0.308927 11.011976 2.896121
v 0.574085 11.011976 2.962294
v 1.437368 11.011976 2.765254
v 2.204240 11.011976 2.322511
v 2.806525 11.011976 1.673401
v 3.190713 11.011976 0.875600
v 3.322691 11.011976 0.000000
v 3.147111 11.845400 -0.862065
v 2.768837 11.845400 -1.647535
v 2.175857 11.845400 -2.286614
v 1.420862 11.845400 -2.722515
v 0.570911 11.845400 -2.916512
v -0.298453 11.845400 -2.851362
v -1.109997 11.845400 -2.532856
v -1.791602 11.845400 -1.989295
v -2.282709 11.845400 -1.268976
v -2.539680 11.845400 -0.435903
v -2.539680 11.845400 0.435902
v -2.282709 11.845400 1.268975
v -1.791602 11.845400 1.989294
v -1.109997 11.845400 2.532855
v -0.298453 11.845400 2.851362
v 0.570911 11.845400 2.916513
v 1.420862 11.845400 2.722517
v 2.175857 11.845400 2.286616
v 2.768837 11.845400 1.647538
v 3.147111 11.845400 0.862068
v 3.277033 11.845400 0.000000
v 3.151822 12.915742 -0.863529
v 2.772913 12.915742 -1.650331
v 2.178931 12.915742 -2.290495
v 1.422650 12.915742 -2.727136
v 0.571262 12.915742 -2.921461
v -0.299589 12.915742 -2.856202
v -1.112503 12.915742 -2.537155
v -1.795261 12.915742 -1.992670
v -2.287202 12.915742 -1.271130
v -2.544609 12.915742 -0.436643
v -2.544609 12.915742 0.436642
v -2.287202 12.915742 1.271129
v -1.795261 12.915742 1.992670
v -1.112503 12.915742 2.537155
v -0.299589 12.915742 2.856202
v 0.571262 12.915742 2.921462
v 1.422650 12.915742 2.727138
v 2.178931 12.915742 2.290496
v 2.772913 12.915742 1.650334
v 3.151822 12.915742 0.863531
v 3.281978 12.915742 0.000000
v 3.450843 13.724131 -0.956307
v 3.031221 13.724131 -1.827647
v 2.373422 13.724131 -2.536587
v 1.535883 13.724131 -3.020144
v 0.593013 13.724131 -3.235347
v -0.371391 13.724131 -3.163073
v -1.271644 13.724131 -2.809751
v -2.027758 13.724131 -2.206766
v -2.572558 13.724131 -1.407703
v -2.857612 13.724131 -0.483556
v -2.857612 13.724131 0.483555
v -2.572558 13.724131 1.407699
v -2.027758 13.724131 2.206766
v -1.271644 13.724131 2.809751
v -0.371391 13.724131 3.163073
v 0.593013 13.724131 3.235348
v 1.535883 13.724131 3.020146
v 2.373422 13.724131 2.536588
v 3.031221 13.724131 1.827649
v 3.450843 13.724131 0.956310
v 3.594982 13.724131 0.000000
v 0.334538 0.000000 0.000000
v 0.334538 9.933327 0.000000
v 6.821864 0.327879 -2.001540
v 4.086255 0.948690 -1.153458
v 5.943629 0.327905 -3.825246
v 3.580130 0.948701 -2.204428
v 4.566870 0.327953 -5.309082
v 2.786729 0.948723 -3.059525
v 2.813909 0.328020 -6.321204
v 1.776517 0.948753 -3.642770
v 0.840479 0.328100 -6.771675
v 0.639272 0.948789 -3.902340
v -1.178057 0.328185 -6.620459
v -0.523950 0.948827 -3.815168
v -3.062361 0.328269 -5.880978
v -1.609807 0.948864 -3.389003
v -4.645004 0.328342 -4.618926
v -2.521805 0.948898 -2.661709
v -5.785323 0.328400 -2.946440
v -3.178919 0.948924 -1.697911
v -6.382011 0.328436 -1.012129
v -3.522745 0.948940 -0.583245
v -6.382011 0.328436 1.012125
v -3.522745 0.948940 0.583244
v -5.785323 0.328400 2.946437
v -3.178919 0.948923 1.697909
v -4.645004 0.328342 4.618922
v -2.521805 0.948898 2.661707
v -3.062378 0.328269 5.880975
v -1.609807 0.948864 3.389002
v -1.178057 0.328185 6.620459
v -0.523967 0.948827 3.815169
v 0.840479 0.328100 6.771676
v 0.639272 0.948789 3.902341
v 2.813909 0.328020 6.321206
v 1.776517 0.948753 3.642773
v 4.566870 0.327953 5.309086
v 2.786712 0.948722 3.059528
v 5.943629 0.327905 3.825251
v 3.580130 0.948700 2.204431
v 6.821864 0.327879 2.001544
v 4.086255 0.948689 1.153460
v 7.123541 0.327879 -0.000000
v 4.260115 0.948690 0.000000
v 17.081439 3.218097 -5.185342
v 16.965015 3.426764 -5.149221
v 14.806766 3.218586 -9.910347
v 14.706413 3.427203 -9.841461
v 11.240452 3.219266 -13.755336
v 11.165124 3.427813 -13.660011
v 6.699075 3.220072 -16.378626
v 6.655372 3.428537 -16.265524
v 1.585901 3.220938 -17.546946
v 1.577531 3.429314 -17.426243
v -3.644849 3.221780 -17.156162
v -3.617351 3.430068 -17.038587
v -8.528299 3.222527 -15.240696
v -8.467522 3.430737 -15.136594
v -12.630274 3.223114 -11.970559
v -12.541716 3.431263 -11.889007
v -15.585984 3.223486 -7.636282
v -15.477462 3.431595 -7.584345
v -17.132526 3.223616 -2.623151
v -17.013563 3.431711 -2.605320
v -17.132526 3.223614 2.623139
v -17.013563 3.431711 2.605308
v -15.585984 3.223487 7.636274
v -15.477479 3.431598 7.584337
v -12.630291 3.223114 11.970553
v -12.541716 3.431262 11.889000
v -8.528315 3.222528 15.240694
v -8.467539 3.430739 15.136592
v -3.644866 3.221779 17.156161
v -3.617351 3.430068 17.038585
v 1.585884 3.220938 17.546946
v 1.577515 3.429314 17.426243
v 6.699075 3.220073 16.378629
v 6.655355 3.428538 16.265527
v 11.240452 3.219264 13.755339
v 11.165108 3.427812 13.660014
v 14.806766 3.218587 9.910356
v 14.706413 3.427204 9.841470
v 17.081439 3.218096 5.185348
v 16.965015 3.426763 5.149226
v 17.862645 3.217841 -0.000001
v 17.740641 3.426533 -0.000001
vt 0.668029 0.794867
vt 0.654778 0.777276
vt 0.667845 0.763749
vt 0.684637 0.786040
vt 0.675195 0.815692
vt 0.693718 0.812430
vt 0.675575 0.837713
vt 0.694200 0.840334
vt 0.669132 0.858773
vt 0.686035 0.867021
vt 0.656496 0.876811
vt 0.670024 0.889879
vt 0.638905 0.890062
vt 0.647732 0.906671
vt 0.618080 0.897229
vt 0.621342 0.915752
vt 0.596059 0.897609
vt 0.593438 0.916234
vt 0.574999 0.891166
vt 0.566751 0.908069
vt 0.556961 0.878530
vt 0.543893 0.892057
vt 0.543710 0.860939
vt 0.527101 0.869766
vt 0.536543 0.840113
vt 0.518020 0.843376
vt 0.536163 0.818093
vt 0.517538 0.815472
vt 0.542606 0.797033
vt 0.525703 0.788785
vt 0.555242 0.778994
vt 0.541715 0.765927
vt 0.572833 0.765743
vt 0.564007 0.749135
vt 0.593659 0.758577
vt 0.586988 0.730898
vt 0.615679 0.758197
vt 0.612369 0.681732
vt 0.636739 0.764640
vt 0.654302 0.744789
vt 0.918486 0.184176
vt 0.918468 0.220866
vt 0.838659 0.220826
vt 0.838677 0.184136
vt 0.918403 0.154911
vt 0.838594 0.154871
vt 0.918323 0.118073
vt 0.838514 0.118033
vt 0.918343 0.077402
vt 0.838535 0.077362
vt 0.918364 0.036731
vt 0.838555 0.036690
vt 0.918382 0.000040
vt 0.838574 0.000000
vt 0.918136 0.807119
vt 0.918136 0.836236
vt 0.838327 0.836236
vt 0.838327 0.807119
vt 0.918136 0.770428
vt 0.838327 0.770428
vt 0.918136 0.729757
vt 0.838327 0.729757
vt 0.918136 0.689085
vt 0.838327 0.689085
vt 0.918136 0.652395
vt 0.838327 0.652395
vt 0.918172 0.623290
vt 0.838364 0.623290
vt 0.918209 0.586612
vt 0.838400 0.586612
vt 0.918209 0.545941
vt 0.838400 0.545941
vt 0.918209 0.505269
vt 0.838400 0.505269
vt 0.918209 0.468579
vt 0.838400 0.468579
vt 0.918209 0.429525
vt 0.838400 0.429525
vt 0.918306 0.347703
vt 0.838498 0.347683
vt 0.918453 0.251093
vt 0.838644 0.251053
vt 0.675634 0.768143
vt 0.662964 0.743277
vt 0.680852 0.737465
vt 0.690850 0.757088
vt 0.695369 0.787878
vt 0.706424 0.772661
vt 0.720235 0.800548
vt 0.726047 0.782660
vt 0.747800 0.804913
vt 0.747800 0.786105
vt 0.775364 0.800548
vt 0.769552 0.782660
vt 0.800231 0.787878
vt 0.789176 0.772661
vt 0.819965 0.768143
vt 0.804749 0.757088
vt 0.832635 0.743277
vt 0.814747 0.737465
vt 0.837001 0.715712
vt 0.818193 0.715712
vt 0.832635 0.688147
vt 0.814747 0.693960
vt 0.819965 0.663281
vt 0.804749 0.674336
vt 0.800231 0.643547
vt 0.789176 0.658763
vt 0.775364 0.630877
vt 0.769552 0.648765
vt 0.747800 0.626511
vt 0.747800 0.645319
vt 0.720235 0.630877
vt 0.726047 0.648765
vt 0.695369 0.643547
vt 0.706424 0.658763
vt 0.668900 0.656203
vt 0.690850 0.674336
vt 0.613584 0.657452
vt 0.680852 0.693960
vt 0.651865 0.722791
vt 0.677407 0.715712
vt 0.920376 0.431748
vt 0.920376 0.403086
vt 0.999380 0.403086
vt 0.999380 0.431748
vt 0.920396 0.454365
vt 0.999400 0.454365
vt 0.920415 0.482898
vt 0.999419 0.482898
vt 0.920415 0.514670
vt 0.999419 0.514670
vt 0.920415 0.546443
vt 0.999419 0.546443
vt 0.920415 0.575105
vt 0.999419 0.575105
vt 0.920920 0.022776
vt 0.920911 0.000030
vt 0.999915 0.000000
vt 0.999924 0.022746
vt 0.920931 0.051439
vt 0.999935 0.051409
vt 0.920943 0.083211
vt 0.999947 0.083181
vt 0.920955 0.114983
vt 0.999959 0.114953
vt 0.920966 0.143645
vt 0.999970 0.143615
vt 0.920968 0.166410
vt 0.999972 0.166380
vt 0.920971 0.195091
vt 0.999976 0.195061
vt 0.920984 0.226863
vt 0.999988 0.226833
vt 0.920996 0.258635
vt 1.000000 0.258605
vt 0.920691 0.287716
vt 0.999696 0.287701
vt 0.920376 0.310880
vt 0.999380 0.310880
vt 0.920376 0.339542
vt 0.999380 0.339542
vt 0.920376 0.371314
vt 0.999380 0.371314
vt 0.006814 0.662962
vt 0.021747 0.662962
vt 0.021747 0.977336
vt 0.006814 0.977336
vt 0.036680 0.662962
vt 0.036680 0.977336
vt 0.051613 0.662962
vt 0.051613 0.977336
vt 0.066545 0.662962
vt 0.066545 0.977336
vt 0.081478 0.662962
vt 0.081478 0.977336
vt 0.096411 0.662962
vt 0.096411 0.977336
vt 0.111344 0.662962
vt 0.111344 0.977336
vt 0.126277 0.662962
vt 0.126277 0.977336
vt 0.141209 0.662962
vt 0.141209 0.977336
vt 0.156142 0.662962
vt 0.156142 0.977336
vt 0.171075 0.662962
vt 0.171075 0.977336
vt 0.186008 0.662962
vt 0.186008 0.977336
vt 0.200940 0.662962
vt 0.200940 0.977336
vt 0.215873 0.662962
vt 0.215873 0.977336
vt 0.287289 0.705679
vt 0.278075 0.717233
vt 0.257370 0.689942
vt 0.264760 0.723645
vt 0.249981 0.723645
vt 0.236666 0.717233
vt 0.227451 0.705679
vt 0.224163 0.691271
vt 0.227451 0.676862
vt 0.236666 0.665308
vt 0.249981 0.658896
vt 0.264760 0.658896
vt 0.278075 0.665308
vt 0.287289 0.676862
vt 0.290578 0.691271
vt 0.585273 0.510020
vt 0.608603 0.516951
vt 0.600276 0.580548
vt 0.558537 0.568167
vt 0.632940 0.516690
vt 0.643805 0.580052
vt 0.656114 0.509264
vt 0.685216 0.566720
vt 0.676069 0.495344
vt 0.720872 0.541845
vt 0.691026 0.476170
vt 0.747578 0.507549
vt 0.699661 0.453446
vt 0.762974 0.466924
vt 0.701213 0.429195
vt 0.765710 0.423589
vt 0.695546 0.405565
vt 0.755562 0.381396
vt 0.683174 0.384655
vt 0.733451 0.344066
vt 0.665196 0.368316
vt 0.701354 0.314874
vt 0.643204 0.357996
vt 0.662077 0.296465
vt 0.619146 0.354606
vt 0.619122 0.290399
vt 0.595155 0.358450
vt 0.576274 0.297238
vt 0.573360 0.369193
vt 0.537304 0.316385
vt 0.555695 0.385891
vt 0.505730 0.346218
vt 0.543731 0.407060
vt 0.484317 0.384038
vt 0.538539 0.430820
vt 0.474988 0.426514
vt 0.540573 0.455065
vt 0.478603 0.469869
vt 0.549671 0.477632
vt 0.494859 0.510236
vt 0.565028 0.496510
vt 0.522349 0.543984
vt 0.595998 0.609405
vt 0.545773 0.594509
vt 0.648369 0.608815
vt 0.698220 0.592826
vt 0.741084 0.562817
vt 0.773176 0.521545
vt 0.791659 0.472680
vt 0.794913 0.420578
vt 0.782680 0.369869
vt 0.756077 0.325031
vt 0.717507 0.289934
vt 0.670268 0.267851
vt 0.618668 0.260560
vt 0.567193 0.268779
vt 0.520403 0.291810
vt 0.482419 0.327598
vt 0.456651 0.373030
vt 0.445405 0.424081
vt 0.449710 0.476224
vt 0.469223 0.524811
vt 0.502292 0.565366
vt 0.173771 0.401995
vt 0.124319 0.378106
vt 0.136808 0.360007
vt 0.180306 0.380997
vt 0.084142 0.340699
vt 0.101455 0.327112
vt 0.056804 0.293136
vt 0.077388 0.285274
vt 0.044712 0.239664
vt 0.066732 0.238227
vt 0.048915 0.185040
vt 0.070414 0.190158
vt 0.069015 0.134113
vt 0.088087 0.145335
vt 0.103203 0.091393
vt 0.118167 0.107724
vt 0.148430 0.060637
vt 0.157973 0.080633
vt 0.200698 0.044487
vt 0.203978 0.066409
vt 0.255401 0.044529
vt 0.252131 0.066452
vt 0.307673 0.060598
vt 0.298145 0.080613
vt 0.352917 0.091345
vt 0.337960 0.107688
vt 0.387117 0.134075
vt 0.368047 0.145303
vt 0.407222 0.185015
vt 0.385724 0.190135
vt 0.411425 0.239650
vt 0.389406 0.238212
vt 0.399330 0.293131
vt 0.378747 0.285266
vt 0.371987 0.340698
vt 0.354677 0.327110
vt 0.331807 0.378108
vt 0.319321 0.360007
vt 0.282351 0.401996
vt 0.275820 0.380997
vt 0.228061 0.410123
vt 0.228062 0.388145
vt 0.153075 0.336395
vt 0.188820 0.353627
vt 0.124015 0.309377
vt 0.104223 0.274998
vt 0.095450 0.236330
vt 0.098462 0.196813
vt 0.112979 0.159955
vt 0.137702 0.129017
vt 0.170431 0.106726
vt 0.208262 0.095032
vt 0.247858 0.095064
vt 0.285696 0.106721
vt 0.318430 0.128996
vt 0.343157 0.159931
vt 0.357676 0.196793
vt 0.360689 0.236316
vt 0.351914 0.274989
vt 0.332119 0.309372
vt 0.303056 0.336394
vt 0.267309 0.353627
vt 0.228064 0.359506
vt 0.169940 0.311881
vt 0.197646 0.325232
vt 0.147412 0.290947
vt 0.132064 0.264304
vt 0.125256 0.234330
vt 0.127583 0.203691
vt 0.138832 0.175108
vt 0.157998 0.151111
vt 0.183376 0.133821
vt 0.212713 0.124767
vt 0.243414 0.124780
vt 0.272755 0.133821
vt 0.298136 0.151100
vt 0.317304 0.175092
vt 0.328555 0.203676
vt 0.330883 0.234317
vt 0.324074 0.264296
vt 0.308724 0.290942
vt 0.286195 0.311878
vt 0.258487 0.325232
vt 0.228066 0.329808
vt 0.618212 0.075794
vt 0.633067 0.077929
vt 0.627789 0.106132
vt 0.614798 0.104175
vt 0.647768 0.080768
vt 0.640619 0.108758
vt 0.662281 0.084415
vt 0.653215 0.112063
vt 0.676548 0.088944
vt 0.665504 0.116053
vt 0.690481 0.094420
vt 0.677406 0.120730
vt 0.703942 0.100917
vt 0.688837 0.126076
vt 0.716737 0.108518
vt 0.699713 0.132051
vt 0.728580 0.117308
vt 0.709969 0.138577
vt 0.738952 0.127225
vt 0.719727 0.145560
vt 0.747790 0.138500
vt 0.729019 0.152757
vt 0.464683 0.114527
vt 0.474971 0.104633
vt 0.491219 0.125630
vt 0.481037 0.131230
vt 0.487013 0.096427
vt 0.501903 0.120343
vt 0.500216 0.089743
vt 0.513148 0.115615
vt 0.514168 0.084425
vt 0.524914 0.111573
vt 0.528590 0.080334
vt 0.537119 0.108278
vt 0.543297 0.077347
vt 0.549673 0.105746
vt 0.558169 0.075357
vt 0.562488 0.103970
vt 0.573134 0.074255
vt 0.575483 0.102932
vt 0.588158 0.073901
vt 0.588580 0.102613
vt 0.603247 0.074044
vt 0.601696 0.103016
vt 0.617349 0.166100
vt 0.607572 0.164605
vt 0.627038 0.168164
vt 0.636614 0.170785
vt 0.646058 0.173950
vt 0.655364 0.177639
vt 0.664540 0.181822
vt 0.673620 0.186452
vt 0.682660 0.191458
vt 0.691743 0.196745
vt 0.700980 0.202171
vt 0.509910 0.179843
vt 0.500075 0.183606
vt 0.519600 0.176247
vt 0.529237 0.172956
vt 0.538883 0.170069
vt 0.548575 0.167653
vt 0.558329 0.165751
vt 0.568140 0.164389
vt 0.577995 0.163585
vt 0.587871 0.163349
vt 0.597739 0.163687
vt 0.227171 0.477780
vt 0.239403 0.476572
vt 0.242925 0.508156
vt 0.228133 0.509432
vt 0.251582 0.474530
vt 0.257637 0.505794
vt 0.263646 0.471649
vt 0.272213 0.502360
vt 0.275522 0.467925
vt 0.286608 0.497857
vt 0.287125 0.463358
vt 0.300771 0.492277
vt 0.298343 0.457940
vt 0.314658 0.485585
vt 0.309021 0.451656
vt 0.328213 0.477715
vt 0.318918 0.444470
vt 0.341346 0.468534
vt 0.327662 0.436317
vt 0.353871 0.457802
vt 0.334654 0.427088
vt 0.365289 0.445047
vt 0.111230 0.427812
vt 0.117581 0.437342
vt 0.090353 0.457755
vt 0.079940 0.444432
vt 0.125712 0.445708
vt 0.102078 0.468913
vt 0.135062 0.453016
vt 0.114605 0.478388
vt 0.145268 0.459342
vt 0.127704 0.486435
vt 0.156099 0.464736
vt 0.141298 0.493170
vt 0.167374 0.469249
vt 0.155208 0.498755
vt 0.178970 0.472905
vt 0.169415 0.503188
vt 0.190798 0.475734
vt 0.183873 0.506464
vt 0.202781 0.477785
vt 0.198541 0.508525
vt 0.214946 0.478172
vt 0.213318 0.509585
vt 0.244353 0.521107
vt 0.228572 0.522431
vt 0.260033 0.518621
vt 0.275554 0.514976
vt 0.290873 0.510194
vt 0.305947 0.504267
vt 0.320740 0.497171
vt 0.335236 0.488862
vt 0.349404 0.479235
vt 0.363255 0.468155
vt 0.376923 0.455482
vt 0.080414 0.467788
vt 0.068013 0.454494
vt 0.093467 0.479372
vt 0.107087 0.489359
vt 0.121163 0.497922
vt 0.135818 0.505037
vt 0.150657 0.511007
vt 0.165848 0.515725
vt 0.181308 0.519211
vt 0.196972 0.521435
vt 0.212754 0.522561
vt 0.246654 0.542427
vt 0.229350 0.543829
vt 0.263831 0.539772
vt 0.280794 0.535817
vt 0.297513 0.530647
vt 0.313927 0.524274
vt 0.330005 0.516702
vt 0.345780 0.507992
vt 0.361249 0.498127
vt 0.376557 0.487234
vt 0.392057 0.475730
vt 0.066065 0.486660
vt 0.051320 0.474091
vt 0.080858 0.498161
vt 0.095979 0.508418
vt 0.111555 0.517358
vt 0.127388 0.525099
vt 0.143777 0.531446
vt 0.160485 0.536524
vt 0.177474 0.540304
vt 0.194671 0.542770
vt 0.211995 0.543952
vt 0.248636 0.561459
vt 0.230067 0.562923
vt 0.267069 0.558749
vt 0.285223 0.554503
vt 0.303076 0.549080
vt 0.320550 0.542443
vt 0.337556 0.534590
vt 0.354247 0.525828
vt 0.370526 0.516061
vt 0.386582 0.505648
vt 0.402859 0.495199
vt 0.055195 0.505145
vt 0.039297 0.493783
vt 0.070998 0.516145
vt 0.087109 0.526301
vt 0.103672 0.535382
vt 0.120703 0.543291
vt 0.138219 0.549912
vt 0.156134 0.555225
vt 0.174371 0.559198
vt 0.192838 0.561807
vt 0.211437 0.563049
vt 0.250722 0.581806
vt 0.230895 0.583387
vt 0.270361 0.578743
vt 0.289756 0.574569
vt 0.308754 0.569023
vt 0.327301 0.562263
vt 0.345364 0.554453
vt 0.362755 0.545513
vt 0.379630 0.535908
vt 0.396059 0.525941
vt 0.412329 0.516210
vt 0.045134 0.525886
vt 0.028903 0.515636
vt 0.061553 0.536254
vt 0.078469 0.546130
vt 0.095981 0.555165
vt 0.114090 0.563149
vt 0.132746 0.569927
vt 0.151867 0.575408
vt 0.171353 0.579528
vt 0.191098 0.582245
vt 0.210983 0.583533
vt 0.252543 0.598775
vt 0.231691 0.600411
vt 0.273171 0.595700
vt 0.293497 0.591317
vt 0.313397 0.585625
vt 0.332777 0.578732
vt 0.351568 0.570775
vt 0.369656 0.561888
vt 0.387046 0.552376
vt 0.403751 0.542555
vt 0.419896 0.532851
vt 0.037334 0.543001
vt 0.021049 0.533133
vt 0.054141 0.553053
vt 0.071673 0.562754
vt 0.089943 0.571748
vt 0.108903 0.579779
vt 0.128476 0.586656
vt 0.148563 0.592248
vt 0.169052 0.596465
vt 0.189824 0.599259
vt 0.210743 0.600572
vt 0.255029 0.620885
vt 0.232873 0.622596
vt 0.276940 0.617688
vt 0.298486 0.613089
vt 0.319549 0.607167
vt 0.340018 0.600041
vt 0.359803 0.591871
vt 0.378823 0.582849
vt 0.397027 0.573214
vt 0.414324 0.563171
vt 0.430461 0.552825
vt 0.026957 0.564310
vt 0.010652 0.554188
vt 0.044466 0.574384
vt 0.062934 0.584119
vt 0.082258 0.593215
vt 0.102356 0.601399
vt 0.123133 0.608450
vt 0.144476 0.614200
vt 0.166259 0.618542
vt 0.188352 0.621456
vt 0.210605 0.622775
vt 0.257221 0.639175
vt 0.233947 0.640975
vt 0.280218 0.635826
vt 0.302806 0.631019
vt 0.324858 0.624847
vt 0.346256 0.617443
vt 0.366906 0.608978
vt 0.386748 0.599660
vt 0.405790 0.589701
vt 0.424096 0.579181
vt 0.441335 0.567640
vt 0.017664 0.580686
vt 0.000000 0.569440
vt 0.036218 0.591198
vt 0.055614 0.601244
vt 0.075870 0.610629
vt 0.096949 0.619089
vt 0.118762 0.626387
vt 0.141181 0.632339
vt 0.164051 0.636805
vt 0.187201 0.639665
vt 0.210552 0.641162
vt 0.619886 0.436227
vt 0.422469 0.742951
vt 0.408099 0.728048
vt 0.491857 0.661467
vt 0.396883 0.710647
vt 0.389240 0.691406
vt 0.385457 0.671052
vt 0.385672 0.650351
vt 0.389875 0.630079
vt 0.397903 0.610997
vt 0.409455 0.593817
vt 0.597384 0.676485
vt 0.592510 0.696606
vt 0.583855 0.715412
vt 0.571741 0.732201
vt 0.556620 0.746342
vt 0.539057 0.757302
vt 0.519709 0.764667
vt 0.499303 0.768158
vt 0.478606 0.767639
vt 0.458401 0.763128
vt 0.439450 0.754794
vt 0.203082 0.307769
vt 0.213825 0.273192
vt 0.228069 0.275331
vt 0.228067 0.311541
vt 0.180326 0.296802
vt 0.200844 0.266946
vt 0.161823 0.279612
vt 0.190285 0.257150
vt 0.149214 0.257734
vt 0.183083 0.244675
vt 0.143618 0.233115
vt 0.179880 0.230632
vt 0.145526 0.207948
vt 0.180959 0.216270
vt 0.154763 0.184464
vt 0.186220 0.202860
vt 0.170506 0.164746
vt 0.195199 0.191597
vt 0.191355 0.150542
vt 0.207099 0.183480
vt 0.215457 0.143110
vt 0.220862 0.179230
vt 0.240674 0.143121
vt 0.235268 0.179225
vt 0.264778 0.150543
vt 0.249034 0.183474
vt 0.285628 0.164740
vt 0.260935 0.191591
vt 0.301373 0.184452
vt 0.269915 0.202853
vt 0.310612 0.207935
vt 0.275180 0.216260
vt 0.312521 0.233104
vt 0.276259 0.230625
vt 0.306924 0.257726
vt 0.273056 0.244670
vt 0.294315 0.279608
vt 0.265854 0.257147
vt 0.275810 0.296800
vt 0.255295 0.266946
vt 0.253053 0.307768
vt 0.242313 0.273192
vt 0.622106 0.037267
vt 0.639060 0.039160
vt 0.656125 0.042134
vt 0.673278 0.046216
vt 0.690482 0.051503
vt 0.707682 0.058157
vt 0.724781 0.066428
vt 0.741588 0.076685
vt 0.757714 0.089456
vt 0.772326 0.105492
vt 0.783682 0.125035
vt 0.430878 0.095652
vt 0.445700 0.077671
vt 0.462925 0.064244
vt 0.481061 0.054320
vt 0.499424 0.047049
vt 0.517712 0.041824
vt 0.535794 0.038240
vt 0.553612 0.036029
vt 0.571133 0.035031
vt 0.588335 0.035175
vt 0.605233 0.036536
vt 0.160399 0.444553
vt 0.161302 0.441665
vt 0.228057 0.451934
vt 0.228055 0.454962
vt 0.098874 0.414758
vt 0.100593 0.412269
vt 0.048932 0.368183
vt 0.051310 0.366316
vt 0.014980 0.308997
vt 0.017801 0.307917
vt 0.000000 0.242478
vt 0.003011 0.242278
vt 0.005289 0.174546
vt 0.008223 0.175241
vt 0.030343 0.111233
vt 0.032941 0.112760
vt 0.072899 0.058151
vt 0.074933 0.060372
vt 0.129142 0.019992
vt 0.130436 0.022710
vt 0.194064 0.000149
vt 0.194509 0.003127
vt 0.261946 0.000000
vt 0.261503 0.002978
vt 0.326921 0.019902
vt 0.325626 0.022620
vt 0.383210 0.058085
vt 0.381174 0.060305
vt 0.425789 0.111191
vt 0.423190 0.112715
vt 0.450850 0.174525
vt 0.447915 0.175217
vt 0.456136 0.242472
vt 0.453125 0.242269
vt 0.441150 0.309000
vt 0.438331 0.307916
vt 0.407190 0.368191
vt 0.404815 0.366321
vt 0.357242 0.414766
vt 0.355526 0.412275
vt 0.295713 0.444558
vt 0.294813 0.441668
vt 0.590458 0.651414
vt 0.527971 0.632956
vt 0.655548 0.650624
vt 0.717481 0.630682
vt 0.770725 0.593343
vt 0.810560 0.541999
vt 0.833467 0.481238
vt 0.837442 0.416477
vt 0.822170 0.353481
vt 0.789059 0.297857
vt 0.741090 0.254564
vt 0.682671 0.226972
vt 0.618618 0.217839
vt 0.554654 0.227988
vt 0.496475 0.256541
vt 0.449234 0.300971
vt 0.417153 0.357391
vt 0.403111 0.420813
vt 0.408392 0.485620
vt 0.432579 0.546080
vt 0.473540 0.596904
vn 0.000000 0.000000 1.000000
vn 0.000000 0.000000 1.000000
vn 0.000000 0.000000 1.000000
vn 0.000000 0.000000 1.000000
vn 0.000000 0.000000 1.000000
vn 0.000000 0.000000 1.000000
vn 0.000000 0.000000 1.000000
vn 0.000000 0.000000 1.000000
vn 0.000000 0.000000 1.000000
vn 0.000000 0.000000 1.000000
vn -0.000000 0.000000 1.000000
vn -0.000000 0.000000 1.000000
vn -0.000000 0.000000 1.000000
vn -0.000000 0.000000 1.000000
vn -0.000000 0.000000 1.000000
vn -0.000000 0.000000 1.000000
vn -0.000000 0.000000 1.000000
vn -0.000000 0.000000 1.000000
vn -0.000000 -0.000000 1.000000
vn -0.000000 -0.000000 1.000000
vn -0.000000 -0.000000 1.000000
vn -0.000000 -0.000000 1.000000
vn -0.000000 -0.000000 1.000000
vn -0.000000 -0.000000 1.000000
vn -0.000000 -0.000000 1.000000
vn -0.000000 -0.000000 1.000000
vn -0.000000 -0.000000 1.000000
vn -0.000000 -0.000000 1.000000
vn 0.000000 -0.000000 1.000000
vn 0.000000 -0.000000 1.000000
vn 0.000000 -0.000000 1.000000
vn 0.000000 -0.000000 1.000000
vn 0.000000 -0.000000 1.000000
vn 0.000000 -0.000000 1.000000
vn 0.000000 -0.000000 1.000000
vn 0.000000 -0.000000 1.000000
vn 0.000000 -0.000000 1.000000
vn 0.000000 -0.000000 1.000000
vn 0.000000 0.000000 1.000000
vn 0.000000 0.000000 1.000000
vn 0.809018 0.587784 0.000000
vn 0.885722 0.464217 0.000000
vn 0.885722 0.464217 0.000000
vn 0.809018 0.587784 0.000000
vn 0.587785 0.809017 0.000000
vn 0.587785 0.809017 0.000000
vn 0.309017 0.951056 0.000000
vn 0.309017 0.951056 0.000000
vn 0.000000 1.000000 0.000000
vn 0.000000 1.000000 0.000000
vn -0.309016 0.951057 0.000000
vn -0.309016 0.951057 0.000000
vn -0.587785 0.809017 0.000000
vn -0.587785 0.809017 0.000000
vn -0.809021 0.587780 0.000000
vn -0.809021 0.587780 0.000000
vn -0.951057 0.309016 0.000000
vn -0.951057 0.309016 0.000000
vn -1.000000 0.000000 0.000000
vn -1.000000 0.000000 0.000000
vn -0.951057 -0.309016 0.000000
vn -0.951057 -0.309016 0.000000
vn -0.809021 -0.587780 0.000000
vn -0.809021 -0.587780 0.000000
vn -0.587785 -0.809018 0.000000
vn -0.587785 -0.809018 0.000000
vn -0.309015 -0.951057 0.000000
vn -0.309015 -0.951057 0.000000
vn -0.000000 -1.000000 0.000000
vn -0.000000 -1.000000 0.000000
vn 0.309017 -0.951056 0.000000
vn 0.309017 -0.951056 0.000000
vn 0.442434 -0.896801 0.000000
vn 0.442434 -0.896801 0.000000
vn 0.167611 -0.985853 0.000000
vn 0.167611 -0.985853 0.000000
vn 0.022572 -0.999745 0.000000
vn 0.022572 -0.999745 0.000000
vn 0.866772 0.498705 0.000000
vn 0.862822 0.505507 0.000000
vn 0.862822 0.505507 0.000000
vn 0.866772 0.498705 0.000000
vn -0.000000 -0.000000 -1.000000
vn -0.000001 -0.000000 -1.000000
vn -0.000001 -0.000000 -1.000000
vn -0.000000 -0.000000 -1.000000
vn -0.000000 -0.000000 -1.000000
vn -0.000000 -0.000000 -1.000000
vn -0.000000 -0.000001 -1.000000
vn -0.000000 -0.000001 -1.000000
vn 0.000000 -0.000001 -1.000000
vn 0.000000 -0.000001 -1.000000
vn 0.000000 -0.000001 -1.000000
vn 0.000000 -0.000001 -1.000000
vn 0.000000 -0.000000 -1.000000
vn 0.000000 -0.000000 -1.000000
vn 0.000000 -0.000000 -1.000000
vn 0.000000 -0.000000 -1.000000
vn 0.000001 -0.000000 -1.000000
vn 0.000001 -0.000000 -1.000000
vn 0.000001 0.000000 -1.000000
vn 0.000001 0.000000 -1.000000
vn 0.000001 0.000000 -1.000000
vn 0.000001 0.000000 -1.000000
vn 0.000001 0.000000 -1.000000
vn 0.000001 0.000000 -1.000000
vn 0.000000 0.000000 -1.000000
vn 0.000000 0.000000 -1.000000
vn 0.000000 0.000001 -1.000000
vn 0.000000 0.000001 -1.000000
vn -0.000000 0.000001 -1.000000
vn -0.000000 0.000001 -1.000000
vn -0.000000 0.000001 -1.000000
vn -0.000000 0.000001 -1.000000
vn -0.000000 0.000000 -1.000000
vn -0.000000 0.000000 -1.000000
vn -0.000000 0.000000 -1.000000
vn -0.000000 0.000000 -1.000000
vn -0.000000 0.000000 -1.000000
vn -0.000000 0.000000 -1.000000
vn -0.000000 -0.000000 -1.000000
vn -0.000000 -0.000000 -1.000000
vn -0.809022 -0.587778 0.000000
vn -0.951060 -0.309007 0.000000
vn -0.951060 -0.309007 0.000000
vn -0.809022 -0.587778 0.000000
vn -0.587781 -0.809020 0.000000
vn -0.587781 -0.809020 0.000000
vn -0.309014 -0.951057 0.000000
vn -0.309014 -0.951057 0.000000
vn 0.000000 -1.000000 0.000000
vn 0.000000 -1.000000 0.000000
vn 0.309017 -0.951057 0.000000
vn 0.309017 -0.951057 0.000000
vn 0.587786 -0.809017 0.000000
vn 0.587786 -0.809017 0.000000
vn 0.809018 -0.587783 0.000000
vn 0.809018 -0.587783 0.000000
vn 0.951057 -0.309015 0.000000
vn 0.951057 -0.309015 0.000000
vn 1.000000 0.000000 0.000000
vn 1.000000 0.000000 0.000000
vn 0.951057 0.309015 0.000000
vn 0.951057 0.309015 0.000000
vn 0.809018 0.587783 0.000000
vn 0.809018 0.587783 0.000000
vn 0.587785 0.809017 0.000000
vn 0.587785 0.809017 0.000000
vn 0.309017 0.951057 0.000000
vn 0.309017 0.951057 0.000000
vn 0.000000 1.000000 0.000000
vn 0.000000 1.000000 0.000000
vn -0.309014 0.951057 0.000000
vn -0.309014 0.951057 0.000000
vn -0.587781 0.809020 0.000000
vn -0.587781 0.809020 0.000000
vn -0.809022 0.587778 0.000000
vn -0.809022 0.587778 0.000000
vn -0.951060 0.309007 0.000000
vn -0.951060 0.309007 0.000000
vn -1.000000 0.000000 0.000000
vn -1.000000 0.000000 0.000000
vn -1.000000 0.000000 -0.000278
vn -0.901089 0.000000 0.433635
vn -0.901089 0.000000 0.433635
vn -1.000000 0.000000 -0.000278
vn -0.623706 0.000000 0.781659
vn -0.623706 0.000000 0.781659
vn -0.222791 0.000000 0.974866
vn -0.222791 0.000000 0.974866
vn 0.222252 0.000000 0.974989
vn 0.222252 0.000000 0.974989
vn 0.623274 0.000000 0.782004
vn 0.623274 0.000000 0.782004
vn 0.900850 0.000000 0.434130
vn 0.900850 0.000000 0.434130
vn 1.000000 0.000000 0.000278
vn 1.000000 0.000000 0.000278
vn 0.901089 0.000000 -0.433635
vn 0.901089 0.000000 -0.433635
vn 0.623706 0.000000 -0.781659
vn 0.623706 0.000000 -0.781659
vn 0.222791 0.000000 -0.974866
vn 0.222791 0.000000 -0.974866
vn -0.222252 0.000000 -0.974989
vn -0.222252 0.000000 -0.974989
vn -0.623274 0.000000 -0.782004
vn -0.623274 0.000000 -0.782004
vn -0.900850 0.000000 -0.434130
vn -0.900850 0.000000 -0.434130
vn 0.000000 1.000000 0.000000
vn 0.000000 1.000000 0.000000
vn 0.000000 1.000000 -0.000000
vn 0.000000 1.000000 0.000000
vn 0.000000 1.000000 0.000001
vn 0.000000 1.000000 0.000001
vn 0.000000 1.000000 0.000001
vn 0.000000 1.000000 0.000000
vn 0.000000 1.000000 0.000000
vn 0.000000 1.000000 0.000000
vn 0.000000 1.000000 0.000000
vn 0.000000 1.000000 -0.000001
vn 0.000000 1.000000 -0.000001
vn 0.000000 1.000000 -0.000001
vn 0.000000 1.000000 0.000000
vn 0.054944 -0.998346 -0.016909
vn 0.047439 -0.998352 -0.032294
vn 0.164137 -0.980049 -0.112084
vn 0.189888 -0.980045 -0.058766
vn 0.035748 -0.998358 -0.044762
vn 0.123775 -0.980073 -0.155360
vn 0.020927 -0.998364 -0.053219
vn 0.072463 -0.980115 -0.184725
vn 0.004297 -0.998369 -0.056937
vn 0.014837 -0.980172 -0.197594
vn -0.012671 -0.998372 -0.055608
vn -0.043933 -0.980237 -0.192886
vn -0.028489 -0.998374 -0.049363
vn -0.098620 -0.980306 -0.171097
vn -0.041775 -0.998375 -0.038757
vn -0.144404 -0.980372 -0.134233
vn -0.051367 -0.998374 -0.024720
vn -0.177287 -0.980429 -0.085602
vn -0.056422 -0.998371 -0.008479
vn -0.194425 -0.980473 -0.029514
vn -0.056486 -0.998367 0.008548
vn -0.194354 -0.980500 0.029099
vn -0.051537 -0.998362 0.024862
vn -0.177098 -0.980507 0.085105
vn -0.041992 -0.998356 0.039019
vn -0.144163 -0.980493 0.133602
vn -0.028678 -0.998350 0.049751
vn -0.098412 -0.980461 0.170327
vn -0.012766 -0.998344 0.056085
vn -0.043830 -0.980412 0.192017
vn 0.004330 -0.998340 0.057435
vn 0.014799 -0.980351 0.196703
vn 0.021077 -0.998337 0.053661
vn 0.072296 -0.980284 0.183895
vn 0.035963 -0.998335 0.045092
vn 0.123537 -0.980215 0.154652
vn 0.047645 -0.998336 0.032495
vn 0.163911 -0.980152 0.111518
vn 0.055068 -0.998338 0.017008
vn 0.189751 -0.980099 0.058311
vn 0.057572 -0.998341 0.000030
vn 0.198688 -0.980063 -0.000207
vn 0.398891 -0.875806 -0.271755
vn 0.461036 -0.875941 -0.142033
vn 0.301061 -0.875800 -0.377275
vn 0.176370 -0.875925 -0.449054
vn 0.036099 -0.876168 -0.480652
vn -0.107089 -0.876507 -0.469326
vn -0.240343 -0.876911 -0.416247
vn -0.351811 -0.877343 -0.326339
vn -0.431694 -0.877765 -0.207771
vn -0.473085 -0.878138 -0.071161
vn -0.472509 -0.878430 0.071387
vn -0.430166 -0.878615 0.207347
vn -0.349859 -0.878679 0.324841
vn -0.238644 -0.878617 0.413619
vn -0.106235 -0.878435 0.465903
vn 0.035806 -0.878148 0.477046
vn 0.175026 -0.877781 0.445944
vn 0.299129 -0.877365 0.375170
vn 0.397042 -0.876937 0.270812
vn 0.459916 -0.876534 0.142006
vn 0.481963 -0.876192 0.000159
vn -0.450630 0.881828 0.138970
vn -0.389439 0.881972 0.265446
vn -0.246340 0.954523 0.167937
vn -0.285082 0.954461 0.087930
vn -0.293649 0.882198 0.368099
vn -0.185706 0.954619 0.232843
vn -0.171922 0.882483 0.437797
vn -0.108684 0.954741 0.276871
vn -0.035203 0.882803 0.468423
vn -0.022215 0.954878 0.296167
vn 0.104298 0.883128 0.457392
vn 0.065969 0.955017 0.289120
vn 0.234208 0.883430 0.405831
vn 0.148051 0.955147 0.256468
vn 0.343087 0.883682 0.318430
vn 0.216815 0.955255 0.201194
vn 0.421407 0.883862 0.202986
vn 0.266262 0.955333 0.128235
vn 0.462345 0.883956 0.069703
vn 0.292101 0.955373 0.044030
vn 0.462344 0.883956 -0.069702
vn 0.292101 0.955373 -0.044030
vn 0.421406 0.883863 -0.202986
vn 0.266262 0.955333 -0.128235
vn 0.343087 0.883682 -0.318430
vn 0.216816 0.955255 -0.201194
vn 0.234208 0.883430 -0.405831
vn 0.148052 0.955147 -0.256468
vn 0.104298 0.883128 -0.457392
vn 0.065969 0.955017 -0.289120
vn -0.035203 0.882803 -0.468423
vn -0.022215 0.954878 -0.296167
vn -0.171922 0.882483 -0.437798
vn -0.108684 0.954741 -0.276871
vn -0.293649 0.882198 -0.368100
vn -0.185706 0.954619 -0.232842
vn -0.389439 0.881973 -0.265446
vn -0.246340 0.954523 -0.167937
vn -0.450629 0.881828 -0.138970
vn -0.285083 0.954461 -0.087931
vn -0.471666 0.881777 0.000000
vn -0.298403 0.954440 -0.000000
vn -0.142147 0.985093 0.096883
vn -0.164501 0.985072 0.050728
vn -0.107165 0.985126 0.134323
vn -0.062730 0.985168 0.159716
vn -0.012849 0.985215 0.170841
vn 0.038018 0.985263 0.166770
vn 0.085362 0.985307 0.147930
vn 0.125021 0.985344 0.116045
vn 0.153537 0.985371 0.073961
vn 0.168438 0.985385 0.025395
vn 0.168438 0.985385 -0.025395
vn 0.153537 0.985371 -0.073961
vn 0.125021 0.985344 -0.116044
vn 0.085362 0.985307 -0.147930
vn 0.038019 0.985263 -0.166770
vn -0.012848 0.985215 -0.170841
vn -0.062730 0.985168 -0.159716
vn -0.107165 0.985126 -0.134323
vn -0.142147 0.985093 -0.096883
vn -0.164501 0.985072 -0.050728
vn -0.172186 0.985064 -0.000000
vn -0.051854 0.998029 0.035338
vn -0.060016 0.998026 0.018505
vn -0.039085 0.998035 0.048983
vn -0.022873 0.998041 0.058224
vn -0.004687 0.998049 0.062256
vn 0.013844 0.998057 0.060748
vn 0.031077 0.998064 0.053865
vn 0.045503 0.998071 0.042240
vn 0.055869 0.998075 0.026915
vn 0.061283 0.998078 0.009240
vn 0.061283 0.998078 -0.009240
vn 0.055869 0.998075 -0.026915
vn 0.045503 0.998071 -0.042240
vn 0.031077 0.998064 -0.053865
vn 0.013844 0.998057 -0.060748
vn -0.004687 0.998049 -0.062256
vn -0.022873 0.998041 -0.058224
vn -0.039085 0.998035 -0.048983
vn -0.051854 0.998029 -0.035338
vn -0.060016 0.998026 -0.018505
vn -0.062822 0.998025 0.000000
vn 0.687709 0.694315 -0.212092
vn 0.594448 0.694583 -0.405197
vn 0.817672 0.143735 -0.557452
vn 0.945669 0.143632 -0.291685
vn 0.448372 0.695002 -0.562081
vn 0.617020 0.143898 -0.773679
vn 0.262608 0.695535 -0.668782
vn 0.361559 0.144105 -0.921145
vn 0.053779 0.696133 -0.715895
vn 0.073990 0.144337 -0.986758
vn -0.159495 0.696743 -0.699365
vn -0.220144 0.144575 -0.964694
vn -0.358285 0.697311 -0.620797
vn -0.494700 0.144796 -0.856916
vn -0.525025 0.697790 -0.487276
vn -0.725285 0.144982 -0.673010
vn -0.645039 0.698133 -0.310700
vn -0.891425 0.145115 -0.429305
vn -0.707793 0.698315 -0.106704
vn -0.978353 0.145186 -0.147468
vn -0.707793 0.698315 0.106704
vn -0.978353 0.145186 0.147468
vn -0.645039 0.698133 0.310700
vn -0.891425 0.145115 0.429305
vn -0.525028 0.697789 0.487274
vn -0.725286 0.144982 0.673008
vn -0.358286 0.697312 0.620795
vn -0.494700 0.144797 0.856916
vn -0.159494 0.696742 0.699365
vn -0.220144 0.144576 0.964694
vn 0.053779 0.696134 0.715895
vn 0.073989 0.144337 0.986758
vn 0.262608 0.695534 0.668782
vn 0.361559 0.144105 0.921146
vn 0.448373 0.695000 0.562082
vn 0.617020 0.143898 0.773679
vn 0.594448 0.694583 0.405199
vn 0.817672 0.143735 0.557451
vn 0.687709 0.694315 0.212092
vn 0.945669 0.143632 0.291685
vn 0.719757 0.694226 0.000000
vn 0.989636 0.143597 0.000000
vn 0.801639 -0.242385 -0.546466
vn 0.927131 -0.242213 -0.285938
vn 0.604927 -0.242648 -0.758409
vn 0.354495 -0.242988 -0.902934
vn 0.072607 -0.243368 -0.967212
vn -0.215692 -0.243757 -0.945547
vn -0.484780 -0.244118 -0.839878
vn -0.710758 -0.244423 -0.659607
vn -0.873569 -0.244642 -0.420746
vn -0.958752 -0.244760 -0.144527
vn -0.958752 -0.244760 0.144525
vn -0.873568 -0.244645 0.420746
vn -0.710757 -0.244424 0.659607
vn -0.484780 -0.244118 0.839878
vn -0.215693 -0.243756 0.945547
vn 0.072606 -0.243368 0.967212
vn 0.354494 -0.242988 0.902935
vn 0.604929 -0.242646 0.758409
vn 0.801640 -0.242382 0.546465
vn 0.927131 -0.242213 0.285940
vn 0.970238 -0.242154 0.000000
vn 0.679997 -0.567977 -0.463687
vn 0.786653 -0.567702 -0.242677
vn 0.512909 -0.568411 -0.643299
vn 0.300354 -0.568964 -0.765551
vn 0.061320 -0.569584 -0.819643
vn -0.182899 -0.570216 -0.800875
vn -0.410619 -0.570806 -0.711036
vn -0.601695 -0.571299 -0.558194
vn -0.739260 -0.571652 -0.355961
vn -0.811206 -0.571838 -0.122259
vn -0.811207 -0.571837 0.122254
vn -0.739261 -0.571653 0.355959
vn -0.601691 -0.571301 0.558196
vn -0.410619 -0.570806 0.711036
vn -0.182900 -0.570216 0.800875
vn 0.061319 -0.569584 0.819643
vn 0.300353 -0.568963 0.765551
vn 0.512911 -0.568411 0.643297
vn 0.679996 -0.567978 0.463688
vn 0.786651 -0.567702 0.242681
vn 0.823299 -0.567608 0.000000
vn 0.807735 -0.210360 -0.550738
vn 0.934216 -0.210218 -0.288182
vn 0.609481 -0.210585 -0.764321
vn 0.357088 -0.210871 -0.909957
vn 0.073002 -0.211193 -0.974715
vn -0.217528 -0.211523 -0.952859
vn -0.488688 -0.211829 -0.846353
vn -0.716397 -0.212087 -0.664676
vn -0.880444 -0.212274 -0.423979
vn -0.966276 -0.212370 -0.145639
vn -0.966276 -0.212368 0.145637
vn -0.880447 -0.212270 0.423976
vn -0.716397 -0.212085 0.664677
vn -0.488686 -0.211828 0.846354
vn -0.217530 -0.211522 0.952858
vn 0.072999 -0.211193 0.974715
vn 0.357086 -0.210871 0.909958
vn 0.609482 -0.210586 0.764320
vn 0.807735 -0.210363 0.550738
vn 0.934215 -0.210221 0.288183
vn 0.977665 -0.210171 0.000000
vn 0.825684 -0.036270 -0.562965
vn 0.954942 -0.036242 -0.294570
vn 0.623060 -0.036311 -0.781331
vn 0.365073 -0.036361 -0.930269
vn 0.074650 -0.036419 -0.996545
vn -0.222403 -0.036479 -0.974272
vn -0.499689 -0.036536 -0.865434
vn -0.732576 -0.036585 -0.679702
vn -0.900370 -0.036620 -0.433581
vn -0.988167 -0.036639 -0.148940
vn -0.988167 -0.036639 0.148940
vn -0.900371 -0.036618 0.433579
vn -0.732575 -0.036582 0.679702
vn -0.499688 -0.036535 0.865434
vn -0.222405 -0.036479 0.974272
vn 0.074650 -0.036419 0.996544
vn 0.365072 -0.036362 0.930269
vn 0.623060 -0.036311 0.781331
vn 0.825684 -0.036270 0.562966
vn 0.954942 -0.036242 0.294570
vn 0.999343 -0.036231 -0.000000
vn 0.824526 0.064223 -0.562167
vn 0.953602 0.064181 -0.294150
vn 0.622186 0.064295 -0.780225
vn 0.364562 0.064389 -0.928950
vn 0.074552 0.064493 -0.995129
vn -0.222077 0.064600 -0.972887
vn -0.498969 0.064699 -0.864201
vn -0.731523 0.064782 -0.678732
vn -0.899077 0.064841 -0.432963
vn -0.986748 0.064871 -0.148729
vn -0.986748 0.064871 0.148729
vn -0.899077 0.064841 0.432963
vn -0.731523 0.064781 0.678732
vn -0.498970 0.064699 0.864201
vn -0.222079 0.064600 0.972886
vn 0.074551 0.064494 0.995129
vn 0.364562 0.064390 0.928950
vn 0.622185 0.064296 0.780226
vn 0.824526 0.064224 0.562167
vn 0.953602 0.064181 0.294150
vn 0.997939 0.064167 -0.000000
vn 0.823420 0.082635 -0.561383
vn 0.952312 0.082573 -0.293740
vn 0.621365 0.082728 -0.779142
vn 0.364099 0.082846 -0.927668
vn 0.074491 0.082979 -0.993763
vn -0.221734 0.083116 -0.971558
vn -0.498249 0.083244 -0.863028
vn -0.730493 0.083352 -0.677815
vn -0.897824 0.083428 -0.432380
vn -0.985379 0.083469 -0.148529
vn -0.985379 0.083469 0.148529
vn -0.897824 0.083428 0.432380
vn -0.730493 0.083351 0.677815
vn -0.498250 0.083244 0.863028
vn -0.221735 0.083116 0.971558
vn 0.074490 0.082979 0.993763
vn 0.364098 0.082846 0.927669
vn 0.621362 0.082728 0.779144
vn 0.823420 0.082635 0.561384
vn 0.952312 0.082573 0.293739
vn 0.996587 0.082551 -0.000000
vn 0.826050 0.021578 -0.563184
vn 0.955352 0.021558 -0.294682
vn 0.623354 0.021603 -0.781641
vn 0.365268 0.021632 -0.930651
vn 0.074728 0.021666 -0.996969
vn -0.222454 0.021702 -0.974701
vn -0.499871 0.021737 -0.865827
vn -0.732871 0.021767 -0.680019
vn -0.900751 0.021788 -0.433788
vn -0.988595 0.021800 -0.149011
vn -0.988595 0.021800 0.149011
vn -0.900752 0.021788 0.433788
vn -0.732871 0.021767 0.680019
vn -0.499872 0.021737 0.865827
vn -0.222455 0.021702 0.974701
vn 0.074727 0.021666 0.996969
vn 0.365268 0.021631 0.930651
vn 0.623353 0.021602 0.781642
vn 0.826049 0.021578 0.563184
vn 0.955352 0.021558 0.294682
vn 0.999768 0.021551 -0.000000
vn 0.813527 -0.174903 -0.554601
vn 0.940871 -0.174779 -0.290198
vn 0.613909 -0.175100 -0.769711
vn 0.359753 -0.175350 -0.916423
vn 0.073651 -0.175630 -0.981697
vn -0.218973 -0.175917 -0.959742
vn -0.492118 -0.176185 -0.852513
vn -0.721517 -0.176409 -0.669547
vn -0.886797 -0.176570 -0.427100
vn -0.973278 -0.176653 -0.146710
vn -0.973278 -0.176653 0.146710
vn -0.886797 -0.176570 0.427100
vn -0.721517 -0.176409 0.669546
vn -0.492119 -0.176185 0.852513
vn -0.218974 -0.175917 0.959741
vn 0.073650 -0.175630 0.981697
vn 0.359752 -0.175350 0.916423
vn 0.613909 -0.175100 0.769711
vn 0.813527 -0.174903 0.554601
vn 0.940871 -0.174778 0.290197
vn 0.984615 -0.174736 -0.000000
vn 0.770340 -0.361380 -0.525338
vn 0.891061 -0.361153 -0.274917
vn 0.581155 -0.361738 -0.728975
vn 0.340375 -0.362194 -0.867733
vn 0.069455 -0.362707 -0.929311
vn -0.207499 -0.363231 -0.908299
vn -0.465895 -0.363719 -0.806629
vn -0.682812 -0.364129 -0.633386
vn -0.839046 -0.364424 -0.403976
vn -0.920778 -0.364575 -0.138756
vn -0.920778 -0.364575 0.138756
vn -0.839047 -0.364423 0.403975
vn -0.682813 -0.364129 0.633385
vn -0.465895 -0.363719 0.806629
vn -0.207500 -0.363230 0.908299
vn 0.069454 -0.362707 0.929312
vn 0.340375 -0.362194 0.867733
vn 0.581155 -0.361738 0.728975
vn 0.770340 -0.361380 0.525338
vn 0.891061 -0.361152 0.274916
vn 0.932537 -0.361074 -0.000000
vn 0.000000 -1.000000 0.000000
vn -0.724556 0.651998 0.223423
vn -0.626719 0.651759 0.427123
vn 0.001224 0.999999 -0.000000
vn -0.473223 0.651385 0.593091
vn -0.277566 0.650909 0.706594
vn -0.057012 0.650371 0.757474
vn 0.168900 0.649819 0.741085
vn 0.380079 0.649304 0.658745
vn 0.557663 0.648870 0.517668
vn 0.685740 0.648557 0.330355
vn 0.752798 0.648392 0.113501
vn 0.752798 0.648392 -0.113501
vn 0.685740 0.648557 -0.330355
vn 0.557664 0.648870 -0.517667
vn 0.380079 0.649304 -0.658745
vn 0.168900 0.649819 -0.741085
vn -0.057011 0.650371 -0.757474
vn -0.277566 0.650909 -0.706594
vn -0.473223 0.651385 -0.593091
vn -0.626718 0.651759 -0.427123
vn -0.724556 0.651998 -0.223423
vn -0.758150 0.652080 -0.000000
vn 0.103829 0.994079 -0.032041
vn 0.290805 0.952569 -0.089696
vn 0.304387 0.952549 0.000000
vn 0.108687 0.994076 0.000000
vn 0.089704 0.994087 -0.061185
vn 0.251301 0.952628 -0.171314
vn 0.067606 0.994100 -0.084819
vn 0.189465 0.952721 -0.237541
vn 0.039543 0.994116 -0.100840
vn 0.110901 0.952840 -0.282484
vn 0.008050 0.994135 -0.107850
vn 0.022682 0.952974 -0.302203
vn -0.024057 0.994153 -0.105267
vn -0.067305 0.953110 -0.295045
vn -0.053934 0.994170 -0.093366
vn -0.151082 0.953237 -0.261750
vn -0.078958 0.994184 -0.073237
vn -0.221279 0.953344 -0.205356
vn -0.096950 0.994194 -0.046678
vn -0.271762 0.953421 -0.130897
vn -0.106352 0.994199 -0.016027
vn -0.298147 0.953461 -0.044947
vn -0.106352 0.994199 0.016027
vn -0.298146 0.953461 0.044947
vn -0.096950 0.994194 0.046678
vn -0.271762 0.953421 0.130897
vn -0.078958 0.994184 0.073237
vn -0.221280 0.953344 0.205356
vn -0.053934 0.994170 0.093366
vn -0.151083 0.953237 0.261750
vn -0.024057 0.994153 0.105267
vn -0.067305 0.953110 0.295045
vn 0.008050 0.994135 0.107850
vn 0.022682 0.952974 0.302204
vn 0.039543 0.994116 0.100840
vn 0.110901 0.952840 0.282483
vn 0.067606 0.994100 0.084819
vn 0.189465 0.952721 0.237541
vn 0.089704 0.994087 0.061186
vn 0.251300 0.952628 0.171314
vn 0.103829 0.994079 0.032041
vn 0.290805 0.952568 0.089696
vn 0.578839 -0.795634 -0.178640
vn -0.414379 0.901069 0.127924
vn -0.433745 0.901036 0.000000
vn 0.605887 -0.795551 -0.000000
vn 0.500159 -0.795878 -0.341202
vn -0.358050 0.901166 0.244336
vn 0.377011 -0.796252 -0.473122
vn -0.269868 0.901322 0.338806
vn 0.220541 -0.796723 -0.562667
vn -0.157819 0.901523 0.402925
vn 0.044825 -0.797248 -0.601985
vn -0.031990 0.901751 0.431070
vn -0.134440 -0.797780 -0.587770
vn 0.096373 0.901985 0.420875
vn -0.301363 -0.798271 -0.521482
vn 0.215885 0.902204 0.373391
vn -0.441249 -0.798680 -0.409157
vn 0.316027 0.902390 0.292949
vn -0.541869 -0.798971 -0.260815
vn 0.388045 0.902526 0.186730
vn -0.594463 -0.799120 -0.089559
vn 0.425683 0.902598 0.064119
vn -0.594462 -0.799121 0.089559
vn 0.425684 0.902598 -0.064118
vn -0.541869 -0.798971 0.260814
vn 0.388045 0.902526 -0.186730
vn -0.441249 -0.798681 0.409155
vn 0.316027 0.902390 -0.292948
vn -0.301363 -0.798272 0.521481
vn 0.215885 0.902205 -0.373390
vn -0.134441 -0.797780 0.587769
vn 0.096373 0.901985 -0.420874
vn 0.044825 -0.797248 0.601986
vn -0.031990 0.901751 -0.431070
vn 0.220541 -0.796723 0.562668
vn -0.157819 0.901523 -0.402925
vn 0.377012 -0.796252 0.473123
vn -0.269868 0.901322 -0.338806
vn 0.500159 -0.795878 0.341202
vn -0.358049 0.901166 -0.244336
vn 0.578838 -0.795635 0.178640
vn -0.414379 0.901069 -0.127924
s 1
g polySurface94
usemtl lambert3SG
f 2/1/1 1/2/2 21/3/3 22/4/4
f 3/5/5 2/1/1 22/4/4 23/6/6
f 4/7/7 3/5/5 23/6/6 24/8/8
f 5/9/9 4/7/7 24/8/8 25/10/10
f 6/11/11 5/9/9 25/10/10 26/12/12
f 7/13/13 6/11/11 26/12/12 27/14/14
f 8/15/15 7/13/13 27/14/14 28/16/16
f 9/17/17 8/15/15 28/16/16 29/18/18
f 10/19/19 9/17/17 29/18/18 30/20/20
f 11/21/21 10/19/19 30/20/20 31/22/22
f 12/23/23 11/21/21 31/22/22 32/24/24
f 13/25/25 12/23/23 32/24/24 33/26/26
f 14/27/27 13/25/25 33/26/26 34/28/28
f 15/29/29 14/27/27 34/28/28 35/30/30
f 16/31/31 15/29/29 35/30/30 36/32/32
f 17/33/33 16/31/31 36/32/32 37/34/34
f 18/35/35 17/33/33 37/34/34 38/36/36
f 19/37/37 18/35/35 38/36/36 39/38/38
f 20/39/39 19/37/37 39/38/38 40/40/40
f 1/2/2 20/39/39 40/40/40 21/3/3
s 2
f 22/41/41 21/42/42 41/43/43 42/44/44
f 23/45/45 22/41/41 42/44/44 43/46/46
f 24/47/47 23/45/45 43/46/46 44/48/48
f 25/49/49 24/47/47 44/48/48 45/50/50
f 26/51/51 25/49/49 45/50/50 46/52/52
f 27/53/53 26/51/51 46/52/52 47/54/54
f 28/55/55 27/56/53 47/57/54 48/58/56
f 29/59/57 28/55/55 48/58/56 49/60/58
f 30/61/59 29/59/57 49/60/58 50/62/60
f 31/63/61 30/61/59 50/62/60 51/64/62
f 32/65/63 31/63/61 51/64/62 52/66/64
f 33/67/65 32/65/63 52/66/64 53/68/66
f 34/69/67 33/67/65 53/68/66 54/70/68
f 35/71/69 34/69/67 54/70/68 55/72/70
f 36/73/71 35/71/69 55/72/70 56/74/72
f 37/75/73 36/73/71 56/74/72 57/76/74
f 38/77/75 37/75/73 57/76/74 58/78/76
f 39/79/77 38/77/75 58/78/76 59/80/78
f 40/81/79 39/79/80 59/80/81 60/82/82
f 21/42/42 40/81/79 60/82/82 41/43/43
s 3
f 42/83/83 41/84/84 61/85/85 62/86/86
f 43/87/87 42/83/83 62/86/86 63/88/88
f 44/89/89 43/87/87 63/88/88 64/90/90
f 45/91/91 44/89/89 64/90/90 65/92/92
f 46/93/93 45/91/91 65/92/92 66/94/94
f 47/95/95 46/93/93 66/94/94 67/96/96
f 48/97/97 47/95/95 67/96/96 68/98/98
f 49/99/99 48/97/97 68/98/98 69/100/100
f 50/101/101 49/99/99 69/100/100 70/102/102
f 51/103/103 50/101/101 70/102/102 71/104/104
f 52/105/105 51/103/103 71/104/104 72/106/106
f 53/107/107 52/105/105 72/106/106 73/108/108
f 54/109/109 53/107/107 73/108/108 74/110/110
f 55/111/111 54/109/109 74/110/110 75/112/112
f 56/113/113 55/111/111 75/112/112 76/114/114
f 57/115/115 56/113/113 76/114/114 77/116/116
f 58/117/117 57/115/115 77/116/116 78/118/118
f 59/119/119 58/117/117 78/118/118 79/120/120
f 60/121/121 59/119/119 79/120/120 80/122/122
f 41/84/84 60/121/121 80/122/122 61/85/85
s 4
f 62/123/123 61/124/124 1/125/125 2/126/126
f 63/127/127 62/123/123 2/126/126 3/128/128
f 64/129/129 63/127/127 3/128/128 4/130/130
f 65/131/131 64/129/129 4/130/130 5/132/132
f 66/133/133 65/131/131 5/132/132 6/134/134
f 67/135/135 66/133/133 6/134/134 7/136/136
f 68/137/137 67/138/135 7/139/136 8/140/138
f 69/141/139 68/137/137 8/140/138 9/142/140
f 70/143/141 69/141/139 9/142/140 10/144/142
f 71/145/143 70/143/141 10/144/142 11/146/144
f 72/147/145 71/145/143 11/146/144 12/148/146
f 73/149/147 72/147/145 12/148/146 13/150/148
f 74/151/149 73/149/147 13/150/148 14/152/150
f 75/153/151 74/151/149 14/152/150 15/154/152
f 76/155/153 75/153/151 15/154/152 16/156/154
f 77/157/155 76/155/153 16/156/154 17/158/156
f 78/159/157 77/157/155 17/158/156 18/160/158
f 79/161/159 78/159/157 18/160/158 19/162/160
f 80/163/161 79/161/159 19/162/160 20/164/162
f 61/124/124 80/163/161 20/164/162 1/125/125
s 5
usemtl chair_desk1:chair_desk1:lambert2SG
f 81/165/163 82/166/164 96/167/165 95/168/166
f 82/166/164 83/169/167 97/170/168 96/167/165
f 83/169/167 84/171/169 98/172/170 97/170/168
f 84/171/169 85/173/171 99/174/172 98/172/170
f 85/173/171 86/175/173 100/176/174 99/174/172
f 86/175/173 87/177/175 101/178/176 100/176/174
f 87/177/175 88/179/177 102/180/178 101/178/176
f 88/179/177 89/181/179 103/182/180 102/180/178
f 89/181/179 90/183/181 104/184/182 103/182/180
f 90/183/181 91/185/183 105/186/184 104/184/182
f 91/185/183 92/187/185 106/188/186 105/186/184
f 92/187/185 93/189/187 107/190/188 106/188/186
f 93/189/187 94/191/189 108/192/190 107/190/188
f 94/191/189 81/193/163 95/194/166 108/192/190
s 6
f 95/195/191 96/196/192 109/197/193
f 96/196/192 97/198/194 109/197/193
f 97/198/194 98/199/195 109/197/193
f 98/199/195 99/200/196 109/197/193
f 99/200/196 100/201/197 109/197/193
f 100/201/197 101/202/198 109/197/193
f 101/202/198 102/203/199 109/197/193
f 102/203/199 103/204/200 109/197/193
f 103/204/200 104/205/201 109/197/193
f 104/205/201 105/206/202 109/197/193
f 105/206/202 106/207/203 109/197/193
f 106/207/203 107/208/204 109/197/193
f 107/208/204 108/209/205 109/197/193
f 108/209/205 95/195/191 109/197/193
s 7
usemtl lambert3SG
f 110/210/206 111/211/207 132/212/208 131/213/209
f 111/211/207 112/214/210 133/215/211 132/212/208
f 112/214/210 113/216/212 134/217/213 133/215/211
f 113/216/212 114/218/214 135/219/215 134/217/213
f 114/218/214 115/220/216 136/221/217 135/219/215
f 115/220/216 116/222/218 137/223/219 136/221/217
f 116/222/218 117/224/220 138/225/221 137/223/219
f 117/224/220 118/226/222 139/227/223 138/225/221
f 118/226/222 119/228/224 140/229/225 139/227/223
f 119/228/224 120/230/226 141/231/227 140/229/225
f 120/230/226 121/232/228 142/233/229 141/231/227
f 121/232/228 122/234/230 143/235/231 142/233/229
f 122/234/230 123/236/232 144/237/233 143/235/231
f 123/236/232 124/238/234 145/239/235 144/237/233
f 124/238/234 125/240/236 146/241/237 145/239/235
f 125/240/236 126/242/238 147/243/239 146/241/237
f 126/242/238 127/244/240 148/245/241 147/243/239
f 127/244/240 128/246/242 149/247/243 148/245/241
f 128/246/242 129/248/244 150/249/245 149/247/243
f 129/248/244 130/250/246 151/251/247 150/249/245
f 130/250/246 110/210/206 131/213/209 151/251/247
f 131/213/209 132/212/208 153/252/248 152/253/249
f 132/212/208 133/215/211 154/254/250 153/252/248
f 133/215/211 134/217/213 155/255/251 154/254/250
f 134/217/213 135/219/215 156/256/252 155/255/251
f 135/219/215 136/221/217 157/257/253 156/256/252
f 136/221/217 137/223/219 158/258/254 157/257/253
f 137/223/219 138/225/221 159/259/255 158/258/254
f 138/225/221 139/227/223 160/260/256 159/259/255
f 139/227/223 140/229/225 161/261/257 160/260/256
f 140/229/225 141/231/227 162/262/258 161/261/257
f 141/231/227 142/233/229 163/263/259 162/262/258
f 142/233/229 143/235/231 164/264/260 163/263/259
f 143/235/231 144/237/233 165/265/261 164/264/260
f 144/237/233 145/239/235 166/266/262 165/265/261
f 145/239/235 146/241/237 167/267/263 166/266/262
f 146/241/237 147/243/239 168/268/264 167/267/263
f 147/243/239 148/245/241 169/269/265 168/268/264
f 148/245/241 149/247/243 170/270/266 169/269/265
f 149/247/243 150/249/245 171/271/267 170/270/266
f 150/249/245 151/251/247 172/272/268 171/271/267
f 151/251/247 131/213/209 152/253/249 172/272/268
f 173/273/269 174/274/270 195/275/271 194/276/272
f 174/274/270 175/277/273 196/278/274 195/275/271
f 175/277/273 176/279/275 197/280/276 196/278/274
f 176/279/275 177/281/277 198/282/278 197/280/276
f 177/281/277 178/283/279 199/284/280 198/282/278
f 178/283/279 179/285/281 200/286/282 199/284/280
f 179/285/281 180/287/283 201/288/284 200/286/282
f 180/287/283 181/289/285 202/290/286 201/288/284
f 181/289/285 182/291/287 203/292/288 202/290/286
f 182/291/287 183/293/289 204/294/290 203/292/288
f 183/293/289 184/295/291 205/296/292 204/294/290
f 184/295/291 185/297/293 206/298/294 205/296/292
f 185/297/293 186/299/295 207/300/296 206/298/294
f 186/299/295 187/301/297 208/302/298 207/300/296
f 187/301/297 188/303/299 209/304/300 208/302/298
f 188/303/299 189/305/301 210/306/302 209/304/300
f 189/305/301 190/307/303 211/308/304 210/306/302
f 190/307/303 191/309/305 212/310/306 211/308/304
f 191/309/305 192/311/307 213/312/308 212/310/306
f 192/311/307 193/313/309 214/314/310 213/312/308
f 193/313/309 173/273/269 194/276/272 214/314/310
f 194/276/272 195/275/271 216/315/311 215/316/312
f 195/275/271 196/278/274 217/317/313 216/315/311
f 196/278/274 197/280/276 218/318/314 217/317/313
f 197/280/276 198/282/278 219/319/315 218/318/314
f 198/282/278 199/284/280 220/320/316 219/319/315
f 199/284/280 200/286/282 221/321/317 220/320/316
f 200/286/282 201/288/284 222/322/318 221/321/317
f 201/288/284 202/290/286 223/323/319 222/322/318
f 202/290/286 203/292/288 224/324/320 223/323/319
f 203/292/288 204/294/290 225/325/321 224/324/320
f 204/294/290 205/296/292 226/326/322 225/325/321
f 205/296/292 206/298/294 227/327/323 226/326/322
f 206/298/294 207/300/296 228/328/324 227/327/323
f 207/300/296 208/302/298 229/329/325 228/328/324
f 208/302/298 209/304/300 230/330/326 229/329/325
f 209/304/300 210/306/302 231/331/327 230/330/326
f 210/306/302 211/308/304 232/332/328 231/331/327
f 211/308/304 212/310/306 233/333/329 232/332/328
f 212/310/306 213/312/308 234/334/330 233/333/329
f 213/312/308 214/314/310 235/335/331 234/334/330
f 214/314/310 194/276/272 215/316/312 235/335/331
f 215/316/312 216/315/311 237/336/332 236/337/333
f 216/315/311 217/317/313 238/338/334 237/336/332
f 217/317/313 218/318/314 239/339/335 238/338/334
f 218/318/314 219/319/315 240/340/336 239/339/335
f 219/319/315 220/320/316 241/341/337 240/340/336
f 220/320/316 221/321/317 242/342/338 241/341/337
f 221/321/317 222/322/318 243/343/339 242/342/338
f 222/322/318 223/323/319 244/344/340 243/343/339
f 223/323/319 224/324/320 245/345/341 244/344/340
f 224/324/320 225/325/321 246/346/342 245/345/341
f 225/325/321 226/326/322 247/347/343 246/346/342
f 226/326/322 227/327/323 248/348/344 247/347/343
f 227/327/323 228/328/324 249/349/345 248/348/344
f 228/328/324 229/329/325 250/350/346 249/349/345
f 229/329/325 230/330/326 251/351/347 250/350/346
f 230/330/326 231/331/327 252/352/348 251/351/347
f 231/331/327 232/332/328 253/353/349 252/352/348
f 232/332/328 233/333/329 254/354/350 253/353/349
f 233/333/329 234/334/330 255/355/351 254/354/350
f 234/334/330 235/335/331 256/356/352 255/355/351
f 235/335/331 215/316/312 236/337/333 256/356/352
f 257/357/353 258/358/354 279/359/355 278/360/356
f 258/358/354 259/361/357 280/362/358 279/359/355
f 259/361/357 260/363/359 281/364/360 280/362/358
f 260/363/359 261/365/361 282/366/362 281/364/360
f 261/365/361 262/367/363 283/368/364 282/366/362
f 262/367/363 263/369/365 284/370/366 283/368/364
f 263/369/365 264/371/367 285/372/368 284/370/366
f 264/371/367 265/373/369 286/374/370 285/372/368
f 265/373/369 266/375/371 287/376/372 286/374/370
f 266/375/371 267/377/373 288/378/374 287/376/372
f 267/379/373 268/380/375 289/381/376 288/382/374
f 268/380/375 269/383/377 290/384/378 289/381/376
f 269/383/377 270/385/379 291/386/380 290/384/378
f 270/385/379 271/387/381 292/388/382 291/386/380
f 271/387/381 272/389/383 293/390/384 292/388/382
f 272/389/383 273/391/385 294/392/386 293/390/384
f 273/391/385 274/393/387 295/394/388 294/392/386
f 274/393/387 275/395/389 296/396/390 295/394/388
f 275/395/389 276/397/391 297/398/392 296/396/390
f 276/397/391 277/399/393 298/400/394 297/398/392
f 277/399/393 257/357/353 278/360/356 298/400/394
f 278/360/356 279/359/355 300/401/395 299/402/396
f 279/359/355 280/362/358 301/403/397 300/401/395
f 280/362/358 281/364/360 302/404/398 301/403/397
f 281/364/360 282/366/362 303/405/399 302/404/398
f 282/366/362 283/368/364 304/406/400 303/405/399
f 283/368/364 284/370/366 305/407/401 304/406/400
f 284/370/366 285/372/368 306/408/402 305/407/401
f 285/372/368 286/374/370 307/409/403 306/408/402
f 286/374/370 287/376/372 308/410/404 307/409/403
f 287/376/372 288/378/374 309/411/405 308/410/404
f 288/382/374 289/381/376 310/412/406 309/413/405
f 289/381/376 290/384/378 311/414/407 310/412/406
f 290/384/378 291/386/380 312/415/408 311/414/407
f 291/386/380 292/388/382 313/416/409 312/415/408
f 292/388/382 293/390/384 314/417/410 313/416/409
f 293/390/384 294/392/386 315/418/411 314/417/410
f 294/392/386 295/394/388 316/419/412 315/418/411
f 295/394/388 296/396/390 317/420/413 316/419/412
f 296/396/390 297/398/392 318/421/414 317/420/413
f 297/398/392 298/400/394 319/422/415 318/421/414
f 298/400/394 278/360/356 299/402/396 319/422/415
f 299/423/396 300/424/395 321/425/416 320/426/417
f 300/424/395 301/427/397 322/428/418 321/425/416
f 301/427/397 302/429/398 323/430/419 322/428/418
f 302/429/398 303/431/399 324/432/420 323/430/419
f 303/431/399 304/433/400 325/434/421 324/432/420
f 304/433/400 305/435/401 326/436/422 325/434/421
f 305/435/401 306/437/402 327/438/423 326/436/422
f 306/437/402 307/439/403 328/440/424 327/438/423
f 307/439/403 308/441/404 329/442/425 328/440/424
f 308/441/404 309/443/405 330/444/426 329/442/425
f 309/445/405 310/446/406 331/447/427 330/448/426
f 310/446/406 311/449/407 332/450/428 331/447/427
f 311/449/407 312/451/408 333/452/429 332/450/428
f 312/451/408 313/453/409 334/454/430 333/452/429
f 313/453/409 314/455/410 335/456/431 334/454/430
f 314/455/410 315/457/411 336/458/432 335/456/431
f 315/457/411 316/459/412 337/460/433 336/458/432
f 316/459/412 317/461/413 338/462/434 337/460/433
f 317/461/413 318/463/414 339/464/435 338/462/434
f 318/463/414 319/465/415 340/466/436 339/464/435
f 319/465/415 299/423/396 320/426/417 340/466/436
f 320/426/417 321/425/416 342/467/437 341/468/438
f 321/425/416 322/428/418 343/469/439 342/467/437
f 322/428/418 323/430/419 344/470/440 343/469/439
f 323/430/419 324/432/420 345/471/441 344/470/440
f 324/432/420 325/434/421 346/472/442 345/471/441
f 325/434/421 326/436/422 347/473/443 346/472/442
f 326/436/422 327/438/423 348/474/444 347/473/443
f 327/438/423 328/440/424 349/475/445 348/474/444
f 328/440/424 329/442/425 350/476/446 349/475/445
f 329/442/425 330/444/426 351/477/447 350/476/446
f 330/448/426 331/447/427 352/478/448 351/479/447
f 331/447/427 332/450/428 353/480/449 352/478/448
f 332/450/428 333/452/429 354/481/450 353/480/449
f 333/452/429 334/454/430 355/482/451 354/481/450
f 334/454/430 335/456/431 356/483/452 355/482/451
f 335/456/431 336/458/432 357/484/453 356/483/452
f 336/458/432 337/460/433 358/485/454 357/484/453
f 337/460/433 338/462/434 359/486/455 358/485/454
f 338/462/434 339/464/435 360/487/456 359/486/455
f 339/464/435 340/466/436 361/488/457 360/487/456
f 340/466/436 320/426/417 341/468/438 361/488/457
f 341/468/438 342/467/437 363/489/458 362/490/459
f 342/467/437 343/469/439 364/491/460 363/489/458
f 343/469/439 344/470/440 365/492/461 364/491/460
f 344/470/440 345/471/441 366/493/462 365/492/461
f 345/471/441 346/472/442 367/494/463 366/493/462
f 346/472/442 347/473/443 368/495/464 367/494/463
f 347/473/443 348/474/444 369/496/465 368/495/464
f 348/474/444 349/475/445 370/497/466 369/496/465
f 349/475/445 350/476/446 371/498/467 370/497/466
f 350/476/446 351/477/447 372/499/468 371/498/467
f 351/479/447 352/478/448 373/500/469 372/501/468
f 352/478/448 353/480/449 374/502/470 373/500/469
f 353/480/449 354/481/450 375/503/471 374/502/470
f 354/481/450 355/482/451 376/504/472 375/503/471
f 355/482/451 356/483/452 377/505/473 376/504/472
f 356/483/452 357/484/453 378/506/474 377/505/473
f 357/484/453 358/485/454 379/507/475 378/506/474
f 358/485/454 359/486/455 380/508/476 379/507/475
f 359/486/455 360/487/456 381/509/477 380/508/476
f 360/487/456 361/488/457 382/510/478 381/509/477
f 361/488/457 341/468/438 362/490/459 382/510/478
f 362/490/459 363/489/458 384/511/479 383/512/480
f 363/489/458 364/491/460 385/513/481 384/511/479
f 364/491/460 365/492/461 386/514/482 385/513/481
f 365/492/461 366/493/462 387/515/483 386/514/482
f 366/493/462 367/494/463 388/516/484 387/515/483
f 367/494/463 368/495/464 389/517/485 388/516/484
f 368/495/464 369/496/465 390/518/486 389/517/485
f 369/496/465 370/497/466 391/519/487 390/518/486
f 370/497/466 371/498/467 392/520/488 391/519/487
f 371/498/467 372/499/468 393/521/489 392/520/488
f 372/501/468 373/500/469 394/522/490 393/523/489
f 373/500/469 374/502/470 395/524/491 394/522/490
f 374/502/470 375/503/471 396/525/492 395/524/491
f 375/503/471 376/504/472 397/526/493 396/525/492
f 376/504/472 377/505/473 398/527/494 397/526/493
f 377/505/473 378/506/474 399/528/495 398/527/494
f 378/506/474 379/507/475 400/529/496 399/528/495
f 379/507/475 380/508/476 401/530/497 400/529/496
f 380/508/476 381/509/477 402/531/498 401/530/497
f 381/509/477 382/510/478 403/532/499 402/531/498
f 382/510/478 362/490/459 383/512/480 403/532/499
f 383/512/480 384/511/479 405/533/500 404/534/501
f 384/511/479 385/513/481 406/535/502 405/533/500
f 385/513/481 386/514/482 407/536/503 406/535/502
f 386/514/482 387/515/483 408/537/504 407/536/503
f 387/515/483 388/516/484 409/538/505 408/537/504
f 388/516/484 389/517/485 410/539/506 409/538/505
f 389/517/485 390/518/486 411/540/507 410/539/506
f 390/518/486 391/519/487 412/541/508 411/540/507
f 391/519/487 392/520/488 413/542/509 412/541/508
f 392/520/488 393/521/489 414/543/510 413/542/509
f 393/523/489 394/522/490 415/544/511 414/545/510
f 394/522/490 395/524/491 416/546/512 415/544/511
f 395/524/491 396/525/492 417/547/513 416/546/512
f 396/525/492 397/526/493 418/548/514 417/547/513
f 397/526/493 398/527/494 419/549/515 418/548/514
f 398/527/494 399/528/495 420/550/516 419/549/515
f 399/528/495 400/529/496 421/551/517 420/550/516
f 400/529/496 401/530/497 422/552/518 421/551/517
f 401/530/497 402/531/498 423/553/519 422/552/518
f 402/531/498 403/532/499 424/554/520 423/553/519
f 403/532/499 383/512/480 404/534/501 424/554/520
f 404/534/501 405/533/500 426/555/521 425/556/522
f 405/533/500 406/535/502 427/557/523 426/555/521
f 406/535/502 407/536/503 428/558/524 427/557/523
f 407/536/503 408/537/504 429/559/525 428/558/524
f 408/537/504 409/538/505 430/560/526 429/559/525
f 409/538/505 410/539/506 431/561/527 430/560/526
f 410/539/506 411/540/507 432/562/528 431/561/527
f 411/540/507 412/541/508 433/563/529 432/562/528
f 412/541/508 413/542/509 434/564/530 433/563/529
f 413/542/509 414/543/510 435/565/531 434/564/530
f 414/545/510 415/544/511 436/566/532 435/567/531
f 415/544/511 416/546/512 437/568/533 436/566/532
f 416/546/512 417/547/513 438/569/534 437/568/533
f 417/547/513 418/548/514 439/570/535 438/569/534
f 418/548/514 419/549/515 440/571/536 439/570/535
f 419/549/515 420/550/516 441/572/537 440/571/536
f 420/550/516 421/551/517 442/573/538 441/572/537
f 421/551/517 422/552/518 443/574/539 442/573/538
f 422/552/518 423/553/519 444/575/540 443/574/539
f 423/553/519 424/554/520 445/576/541 444/575/540
f 424/554/520 404/534/501 425/556/522 445/576/541
f 425/556/522 426/555/521 447/577/542 446/578/543
f 426/555/521 427/557/523 448/579/544 447/577/542
f 427/557/523 428/558/524 449/580/545 448/579/544
f 428/558/524 429/559/525 450/581/546 449/580/545
f 429/559/525 430/560/526 451/582/547 450/581/546
f 430/560/526 431/561/527 452/583/548 451/582/547
f 431/561/527 432/562/528 453/584/549 452/583/548
f 432/562/528 433/563/529 454/585/550 453/584/549
f 433/563/529 434/564/530 455/586/551 454/585/550
f 434/564/530 435/565/531 456/587/552 455/586/551
f 435/567/531 436/566/532 457/588/553 456/589/552
f 436/566/532 437/568/533 458/590/554 457/588/553
f 437/568/533 438/569/534 459/591/555 458/590/554
f 438/569/534 439/570/535 460/592/556 459/591/555
f 439/570/535 440/571/536 461/593/557 460/592/556
f 440/571/536 441/572/537 462/594/558 461/593/557
f 441/572/537 442/573/538 463/595/559 462/594/558
f 442/573/538 443/574/539 464/596/560 463/595/559
f 443/574/539 444/575/540 465/597/561 464/596/560
f 444/575/540 445/576/541 466/598/562 465/597/561
f 445/576/541 425/556/522 446/578/543 466/598/562
f 446/578/543 447/577/542 468/599/563 467/600/564
f 447/577/542 448/579/544 469/601/565 468/599/563
f 448/579/544 449/580/545 470/602/566 469/601/565
f 449/580/545 450/581/546 471/603/567 470/602/566
f 450/581/546 451/582/547 472/604/568 471/603/567
f 451/582/547 452/583/548 473/605/569 472/604/568
f 452/583/548 453/584/549 474/606/570 473/605/569
f 453/584/549 454/585/550 475/607/571 474/606/570
f 454/585/550 455/586/551 476/608/572 475/607/571
f 455/586/551 456/587/552 477/609/573 476/608/572
f 456/589/552 457/588/553 478/610/574 477/611/573
f 457/588/553 458/590/554 479/612/575 478/610/574
f 458/590/554 459/591/555 480/613/576 479/612/575
f 459/591/555 460/592/556 481/614/577 480/613/576
f 460/592/556 461/593/557 482/615/578 481/614/577
f 461/593/557 462/594/558 483/616/579 482/615/578
f 462/594/558 463/595/559 484/617/580 483/616/579
f 463/595/559 464/596/560 485/618/581 484/617/580
f 464/596/560 465/597/561 486/619/582 485/618/581
f 465/597/561 466/598/562 487/620/583 486/619/582
f 466/598/562 446/578/543 467/600/564 487/620/583
f 111/211/207 110/210/206 488/621/584
f 112/214/210 111/211/207 488/621/584
f 113/216/212 112/214/210 488/621/584
f 114/218/214 113/216/212 488/621/584
f 115/220/216 114/218/214 488/621/584
f 116/222/218 115/220/216 488/621/584
f 117/224/220 116/222/218 488/621/584
f 118/226/222 117/224/220 488/621/584
f 119/228/224 118/226/222 488/621/584
f 120/230/226 119/228/224 488/621/584
f 121/232/228 120/230/226 488/621/584
f 122/234/230 121/232/228 488/621/584
f 123/236/232 122/234/230 488/621/584
f 124/238/234 123/236/232 488/621/584
f 125/240/236 124/238/234 488/621/584
f 126/242/238 125/240/236 488/621/584
f 127/244/240 126/242/238 488/621/584
f 128/246/242 127/244/240 488/621/584
f 129/248/244 128/246/242 488/621/584
f 130/250/246 129/248/244 488/621/584
f 110/210/206 130/250/246 488/621/584
s 10
f 467/622/585 468/623/586 489/624/587
f 468/623/586 469/625/588 489/624/587
f 469/625/588 470/626/589 489/624/587
f 470/626/589 471/627/590 489/624/587
f 471/627/590 472/628/591 489/624/587
f 472/628/591 473/629/592 489/624/587
f 473/629/592 474/630/593 489/624/587
f 474/630/593 475/631/594 489/624/587
f 475/631/594 476/608/595 489/624/587
f 476/608/595 477/609/596 489/624/587
f 477/632/596 478/633/597 489/624/587
f 478/633/597 479/634/598 489/624/587
f 479/634/598 480/635/599 489/624/587
f 480/635/599 481/636/600 489/624/587
f 481/636/600 482/637/601 489/624/587
f 482/637/601 483/638/602 489/624/587
f 483/638/602 484/639/603 489/624/587
f 484/639/603 485/640/604 489/624/587
f 485/640/604 486/641/605 489/624/587
f 486/641/605 487/642/606 489/624/587
f 487/642/606 467/622/585 489/624/587
s 7
f 490/643/607 491/644/608 531/645/609 530/646/610
f 491/644/608 490/643/607 492/647/611 493/648/612
f 493/648/612 492/647/611 494/649/613 495/650/614
f 495/650/614 494/649/613 496/651/615 497/652/616
f 497/652/616 496/651/615 498/653/617 499/654/618
f 499/654/618 498/653/617 500/655/619 501/656/620
f 501/656/620 500/655/619 502/657/621 503/658/622
f 503/658/622 502/657/621 504/659/623 505/660/624
f 505/660/624 504/659/623 506/661/625 507/662/626
f 507/662/626 506/661/625 508/663/627 509/664/628
f 509/664/628 508/663/627 510/665/629 511/666/630
f 511/666/630 510/665/629 512/667/631 513/668/632
f 513/668/632 512/667/631 514/669/633 515/670/634
f 515/670/634 514/669/633 516/671/635 517/672/636
f 517/672/636 516/671/635 518/673/637 519/674/638
f 519/674/638 518/673/637 520/675/639 521/676/640
f 521/676/640 520/675/639 522/677/641 523/678/642
f 523/678/642 522/677/641 524/679/643 525/680/644
f 525/680/644 524/679/643 526/681/645 527/682/646
f 527/682/646 526/681/645 528/683/647 529/684/648
f 529/684/648 528/683/647 530/646/610 531/645/609
f 236/337/333 237/336/332 492/647/611 490/643/607
f 237/336/332 238/338/334 494/649/613 492/647/611
f 238/338/334 239/339/335 496/651/615 494/649/613
f 239/339/335 240/340/336 498/653/617 496/651/615
f 240/340/336 241/341/337 500/655/619 498/653/617
f 241/341/337 242/342/338 502/657/621 500/655/619
f 242/342/338 243/343/339 504/659/623 502/657/621
f 243/343/339 244/344/340 506/661/625 504/659/623
f 244/344/340 245/345/341 508/663/627 506/661/625
f 245/345/341 246/346/342 510/665/629 508/663/627
f 246/346/342 247/347/343 512/667/631 510/665/629
f 247/347/343 248/348/344 514/669/633 512/667/631
f 248/348/344 249/349/345 516/671/635 514/669/633
f 249/349/345 250/350/346 518/673/637 516/671/635
f 250/350/346 251/351/347 520/675/639 518/673/637
f 251/351/347 252/352/348 522/677/641 520/675/639
f 252/352/348 253/353/349 524/679/643 522/677/641
f 253/353/349 254/354/350 526/681/645 524/679/643
f 254/354/350 255/355/351 528/683/647 526/681/645
f 255/355/351 256/356/352 530/646/610 528/683/647
f 256/356/352 236/337/333 490/643/607 530/646/610
f 491/685/608 493/686/612 258/358/354 257/357/353
f 493/686/612 495/687/614 259/361/357 258/358/354
f 495/687/614 497/688/616 260/363/359 259/361/357
f 497/688/616 499/689/618 261/365/361 260/363/359
f 499/689/618 501/690/620 262/367/363 261/365/361
f 501/690/620 503/691/622 263/369/365 262/367/363
f 503/691/622 505/692/624 264/371/367 263/369/365
f 505/692/624 507/693/626 265/373/369 264/371/367
f 507/693/626 509/694/628 266/375/371 265/373/369
f 509/694/628 511/695/630 267/377/373 266/375/371
f 511/696/630 513/697/632 268/380/375 267/379/373
f 513/697/632 515/698/634 269/383/377 268/380/375
f 515/698/634 517/699/636 270/385/379 269/383/377
f 517/699/636 519/700/638 271/387/381 270/385/379
f 519/700/638 521/701/640 272/389/383 271/387/381
f 521/701/640 523/702/642 273/391/385 272/389/383
f 523/702/642 525/703/644 274/393/387 273/391/385
f 525/703/644 527/704/646 275/395/389 274/393/387
f 527/704/646 529/705/648 276/397/391 275/395/389
f 529/705/648 531/706/609 277/399/393 276/397/391
f 531/706/609 491/685/608 257/357/353 277/399/393
f 532/707/649 533/708/650 573/709/651 572/710/652
f 533/708/650 532/707/649 534/711/653 535/712/654
f 535/712/654 534/711/653 536/713/655 537/714/656
f 537/714/656 536/713/655 538/715/657 539/716/658
f 539/716/658 538/715/657 540/717/659 541/718/660
f 541/718/660 540/717/659 542/719/661 543/720/662
f 543/720/662 542/719/661 544/721/663 545/722/664
f 545/722/664 544/721/663 546/723/665 547/724/666
f 547/724/666 546/723/665 548/725/667 549/726/668
f 549/726/668 548/725/667 550/727/669 551/728/670
f 551/728/670 550/727/669 552/729/671 553/730/672
f 553/730/672 552/729/671 554/731/673 555/732/674
f 555/732/674 554/731/673 556/733/675 557/734/676
f 557/734/676 556/733/675 558/735/677 559/736/678
f 559/736/678 558/735/677 560/737/679 561/738/680
f 561/738/680 560/737/679 562/739/681 563/740/682
f 563/740/682 562/739/681 564/741/683 565/742/684
f 565/742/684 564/741/683 566/743/685 567/744/686
f 567/744/686 566/743/685 568/745/687 569/746/688
f 569/746/688 568/745/687 570/747/689 571/748/690
f 571/748/690 570/747/689 572/710/652 573/709/651
f 152/253/249 153/252/248 534/749/653 532/750/649
f 153/252/248 154/254/250 536/751/655 534/749/653
f 154/254/250 155/255/251 538/752/657 536/751/655
f 155/255/251 156/256/252 540/753/659 538/752/657
f 156/256/252 157/257/253 542/754/661 540/753/659
f 157/257/253 158/258/254 544/755/663 542/754/661
f 158/258/254 159/259/255 546/756/665 544/755/663
f 159/259/255 160/260/256 548/757/667 546/756/665
f 160/260/256 161/261/257 550/758/669 548/757/667
f 161/261/257 162/262/258 552/759/671 550/758/669
f 162/262/258 163/263/259 554/760/673 552/759/671
f 163/263/259 164/264/260 556/761/675 554/760/673
f 164/264/260 165/265/261 558/762/677 556/761/675
f 165/265/261 166/266/262 560/763/679 558/762/677
f 166/266/262 167/267/263 562/764/681 560/763/679
f 167/267/263 168/268/264 564/765/683 562/764/681
f 168/268/264 169/269/265 566/766/685 564/765/683
f 169/269/265 170/270/266 568/767/687 566/766/685
f 170/270/266 171/271/267 570/768/689 568/767/687
f 171/271/267 172/272/268 572/769/652 570/768/689
f 172/272/268 152/253/249 532/750/649 572/769/652
f 533/708/650 535/712/654 174/274/270 173/273/269
f 535/712/654 537/714/656 175/277/273 174/274/270
f 537/714/656 539/716/658 176/279/275 175/277/273
f 539/716/658 541/718/660 177/281/277 176/279/275
f 541/718/660 543/720/662 178/283/279 177/281/277
f 543/720/662 545/722/664 179/285/281 178/283/279
f 545/722/664 547/724/666 180/287/283 179/285/281
f 547/724/666 549/726/668 181/289/285 180/287/283
f 549/726/668 551/728/670 182/291/287 181/289/285
f 551/728/670 553/730/672 183/293/289 182/291/287
f 553/730/672 555/732/674 184/295/291 183/293/289
f 555/732/674 557/734/676 185/297/293 184/295/291
f 557/734/676 559/736/678 186/299/295 185/297/293
f 559/736/678 561/738/680 187/301/297 186/299/295
f 561/738/680 563/740/682 188/303/299 187/301/297
f 563/740/682 565/742/684 189/305/301 188/303/299
f 565/742/684 567/744/686 190/307/303 189/305/301
f 567/744/686 569/746/688 191/309/305 190/307/303
f 569/746/688 571/748/690 192/311/307 191/309/305
f 571/748/690 573/709/651 193/313/309 192/311/307
f 573/709/651 533/708/650 173/273/269 193/313/309
