%YAML 1.1
%TAG !u! tag:unity3d.com,2011:
--- !u!1045 &1
EditorBuildSettings:
  m_ObjectHideFlags: 0
  serializedVersion: 2
  m_Scenes:
  - enabled: 1
    path: Assets/Scenes/FR Main Menu.unity
    guid: ee51308c5a08b0a4294adbc7a775df9e
  - enabled: 1
    path: Assets/Scenes/Characters/tutorial.unity
    guid: d818b7e92dfbf42459019cc33cc3adb5
  - enabled: 1
    path: Assets/Scenes/Characters/dante_1.unity
    guid: 9f3c9bbfe32d9ed439b4d1c60ad876e5
  - enabled: 1
    path: Assets/Scenes/Characters/indra_1.unity
    guid: 4f9364f92b2bab448a4be69e78872ed1
  - enabled: 1
    path: Assets/Scenes/Characters/poppy_1.unity
    guid: 93c470b1b124edd48a442b0292d602df
  - enabled: 1
    path: Assets/Scenes/Characters/meilin_1.unity
    guid: 60edb51c8f412f8458c6d93f96db5b7c
  - enabled: 1
    path: Assets/Scenes/Characters/results.unity
    guid: 89b8ac09dcf7fe8449725abc344b0452
  m_configObjects: {}
